 { "syscall": "NtUserGetForegroundWindow","pid" : 612, "path" : "","parameter" : "" }
 { "syscall": "NtUserQueryWindow","pid" : 612, "path" : "","parameter" : "" }
 { "syscall": "NtUserQueryWindow","pid" : 612, "path" : "","parameter" : "" }
 { "syscall": "NtOpenKey","pid" : 612, "path" : "","parameter" : "\\Registry\\User\\S-1-5-21-3472189781-4152027690-2755707555-1000_Classes" }
 { "syscall": "NtQueryObject","pid" : 612, "path" : "","parameter" : "" }
 { "syscall": "NtOpenSection","pid" : 612, "path" : "","parameter" : "" }
 { "syscall": "NtQueryObject","pid" : 612, "path" : "","parameter" : "" }
 { "syscall": "NtQueryKey","pid" : 612, "path" : "","parameter" : "" }
 { "syscall": "NtOpenKey","pid" : 612, "path" : "","parameter" : "Software\\Microsoft\\COM3" }
 { "syscall": "NtQueryValueKey","pid" : 612, "path" : "","parameter" : "" }
 { "syscall": "NtQueryValueKey","pid" : 612, "path" : "","parameter" : "Com+Enabled" }
 { "syscall": "NtQueryObject","pid" : 612, "path" : "","parameter" : "" }
 { "syscall": "NtOpenSection","pid" : 612, "path" : "","parameter" : "" }
 { "syscall": "NtOpenSection","pid" : 612, "path" : "","parameter" : "\\Windows\\SysWOW64\\clbcatq.dll" }
 { "syscall": "NtQuerySection","pid" : 612, "path" : "","parameter" : "" }
 { "syscall": "NtQuerySection","pid" : 612, "path" : "","parameter" : "" }
 { "syscall": "NtProtectVirtualMemory","pid" : 612, "path" : "","parameter" : "" }
 { "syscall": "NtProtectVirtualMemory","pid" : 612, "path" : "","parameter" : "" }
 { "syscall": "NtOpenEvent","pid" : 612, "path" : "","parameter" : "" }
 { "syscall": "NtQueryObject","pid" : 612, "path" : "","parameter" : "" }
 { "syscall": "NtOpenSection","pid" : 612, "path" : "","parameter" : "" }
 { "syscall": "NtOpenKey","pid" : 612, "path" : "","parameter" : "\\Registry\\Machine\\Software\\Microsoft\\SQMClient\\Windows\\DisabledProcesses\\" }
 { "syscall": "NtQueryValueKey","pid" : 612, "path" : "","parameter" : "" }
 { "syscall": "NtQueryValueKey","pid" : 612, "path" : "","parameter" : "DCD9A089" }
 { "syscall": "NtOpenKey","pid" : 612, "path" : "","parameter" : "\\Registry\\Machine\\Software\\Microsoft\\SQMClient\\Windows\\DisabledSessions\\" }
 { "syscall": "NtQueryValueKey","pid" : 612, "path" : "","parameter" : "" }
 { "syscall": "NtQueryValueKey","pid" : 612, "path" : "","parameter" : "MachineThrottling" }
 { "syscall": "NtOpenKey","pid" : 612, "path" : "","parameter" : "\\Registry\\Machine\\Software\\Microsoft\\SQMClient\\Windows\\DisabledSessions\\" }
 { "syscall": "NtQueryValueKey","pid" : 612, "path" : "","parameter" : "" }
 { "syscall": "NtQueryValueKey","pid" : 612, "path" : "","parameter" : "GlobalSession" }
 { "syscall": "NtTraceControl","pid" : 612, "path" : "","parameter" : "" }
 { "syscall": "NtQuerySystemInformation","pid" : 612, "path" : "","parameter" : "" }
 { "syscall": "NtQuerySystemInformation","pid" : 612, "path" : "","parameter" : "" }
 { "syscall": "NtCreateFile","pid" : 612, "path" : "","parameter" : "" }
 { "syscall": "NtCreateFile","pid" : 612, "path" : "","parameter" : "\\Device\\HarddiskVolume1\\Windows\\Registration\\R000000000006.clb" }
 { "syscall": "NtCreateFile","pid" : 612, "path" : "","parameter" : "\\Device\\HarddiskVolume1\\Windows\\Registration\\R000000000006.clb" }
 { "syscall": "NtSetInformationFile","pid" : 612, "path" : "","parameter" : "" }
 { "syscall": "NtCreateSection","pid" : 612, "path" : "","parameter" : "" }
 { "syscall": "NtCreateFile","pid" : 612, "path" : "","parameter" : "\\Device\\HarddiskVolume1\\Windows\\Registration\\R000000000006.clb" }
 { "syscall": "NtSetInformationFile","pid" : 612, "path" : "","parameter" : "" }
 { "syscall": "NtSetInformationFile","pid" : 612, "path" : "","parameter" : "" }
 { "syscall": "NtSetInformationFile","pid" : 612, "path" : "","parameter" : "" }
 { "syscall": "NtQuerySystemInformation","pid" : 612, "path" : "","parameter" : "" }
 { "syscall": "NtQuerySystemInformation","pid" : 612, "path" : "","parameter" : "" }
 { "syscall": "NtQueryKey","pid" : 612, "path" : "","parameter" : "" }
 { "syscall": "NtQueryKey","pid" : 612, "path" : "","parameter" : "" }
 { "syscall": "NtQueryObject","pid" : 612, "path" : "","parameter" : "" }
 { "syscall": "NtQueryKey","pid" : 612, "path" : "","parameter" : "" }
 { "syscall": "NtQueryObject","pid" : 612, "path" : "","parameter" : "" }
 { "syscall": "NtOpenKey","pid" : 612, "path" : "","parameter" : "\\REGISTRY\\USER\\S-1-5-21-3472189781-4152027690-2755707555-1000_CLASSES\\Wow6432Node\\CLSID\\{62BE5D10-60EB-11D0-BD3B-00A0C911CE86}" }
 { "syscall": "NtOpenKey","pid" : 612, "path" : "","parameter" : "\\Registry\\Machine\\Software\\Classes\\Wow6432Node\\CLSID\\{62BE5D10-60EB-11D0-BD3B-00A0C911CE86}" }
 { "syscall": "NtQueryKey","pid" : 612, "path" : "","parameter" : "" }
 { "syscall": "NtQueryKey","pid" : 612, "path" : "","parameter" : "" }
 { "syscall": "NtOpenKey","pid" : 612, "path" : "","parameter" : "\\REGISTRY\\USER\\S-1-5-21-3472189781-4152027690-2755707555-1000_Classes\\Wow6432Node\\CLSID\\{62BE5D10-60EB-11D0-BD3B-00A0C911CE86}\\TreatAs" }
 { "syscall": "NtQueryObject","pid" : 612, "path" : "","parameter" : "" }
 { "syscall": "NtQueryKey","pid" : 612, "path" : "","parameter" : "" }
 { "syscall": "NtOpenKey","pid" : 612, "path" : "","parameter" : "TreatAs" }
 { "syscall": "NtQueryKey","pid" : 612, "path" : "","parameter" : "" }
 { "syscall": "NtQueryKey","pid" : 612, "path" : "","parameter" : "" }
 { "syscall": "NtQueryKey","pid" : 612, "path" : "","parameter" : "" }
 { "syscall": "NtQueryKey","pid" : 612, "path" : "","parameter" : "" }
 { "syscall": "NtOpenKey","pid" : 612, "path" : "","parameter" : "\\REGISTRY\\USER\\S-1-5-21-3472189781-4152027690-2755707555-1000_Classes\\Wow6432Node\\CLSID\\{62BE5D10-60EB-11D0-BD3B-00A0C911CE86}\\Progid" }
 { "syscall": "NtQueryObject","pid" : 612, "path" : "","parameter" : "" }
 { "syscall": "NtQueryKey","pid" : 612, "path" : "","parameter" : "" }
 { "syscall": "NtOpenKey","pid" : 612, "path" : "","parameter" : "Progid" }
 { "syscall": "NtQueryKey","pid" : 612, "path" : "","parameter" : "" }
 { "syscall": "NtQueryObject","pid" : 612, "path" : "","parameter" : "" }
 { "syscall": "NtQueryKey","pid" : 612, "path" : "","parameter" : "" }
 { "syscall": "NtOpenKey","pid" : 612, "path" : "","parameter" : "CLSID\\{62BE5D10-60EB-11D0-BD3B-00A0C911CE86}" }
 { "syscall": "NtOpenKey","pid" : 612, "path" : "","parameter" : "\\Registry\\Machine\\Software\\Classes\\CLSID\\{62BE5D10-60EB-11D0-BD3B-00A0C911CE86}" }
 { "syscall": "NtQueryKey","pid" : 612, "path" : "","parameter" : "" }
 { "syscall": "NtQueryKey","pid" : 612, "path" : "","parameter" : "" }
 { "syscall": "NtOpenKey","pid" : 612, "path" : "","parameter" : "\\REGISTRY\\USER\\S-1-5-21-3472189781-4152027690-2755707555-1000_Classes\\CLSID\\{62BE5D10-60EB-11D0-BD3B-00A0C911CE86}\\Progid" }
 { "syscall": "NtQueryObject","pid" : 612, "path" : "","parameter" : "" }
 { "syscall": "NtQueryKey","pid" : 612, "path" : "","parameter" : "" }
 { "syscall": "NtOpenKey","pid" : 612, "path" : "","parameter" : "Progid" }
 { "syscall": "NtQueryKey","pid" : 612, "path" : "","parameter" : "" }
 { "syscall": "NtQueryKey","pid" : 612, "path" : "","parameter" : "" }
 { "syscall": "NtOpenKey","pid" : 612, "path" : "","parameter" : "\\REGISTRY\\USER\\S-1-5-21-3472189781-4152027690-2755707555-1000_Classes\\Wow6432Node\\CLSID\\{62BE5D10-60EB-11D0-BD3B-00A0C911CE86}" }
 { "syscall": "NtQueryValueKey","pid" : 612, "path" : "","parameter" : "" }
 { "syscall": "NtQueryValueKey","pid" : 612, "path" : "","parameter" : "" }
 { "syscall": "NtQueryKey","pid" : 612, "path" : "","parameter" : "" }
 { "syscall": "NtQueryKey","pid" : 612, "path" : "","parameter" : "" }
 { "syscall": "NtOpenKey","pid" : 612, "path" : "","parameter" : "\\REGISTRY\\USER\\S-1-5-21-3472189781-4152027690-2755707555-1000_Classes\\Wow6432Node\\CLSID\\{62BE5D10-60EB-11D0-BD3B-00A0C911CE86}" }
 { "syscall": "NtQueryValueKey","pid" : 612, "path" : "","parameter" : "" }
 { "syscall": "NtQueryValueKey","pid" : 612, "path" : "","parameter" : "" }
 { "syscall": "NtQueryKey","pid" : 612, "path" : "","parameter" : "" }
 { "syscall": "NtQueryKey","pid" : 612, "path" : "","parameter" : "" }
 { "syscall": "NtOpenKey","pid" : 612, "path" : "","parameter" : "\\REGISTRY\\USER\\S-1-5-21-3472189781-4152027690-2755707555-1000_Classes\\Wow6432Node\\CLSID\\{62BE5D10-60EB-11D0-BD3B-00A0C911CE86}\\InprocServer32" }
 { "syscall": "NtQueryObject","pid" : 612, "path" : "","parameter" : "" }
 { "syscall": "NtQueryKey","pid" : 612, "path" : "","parameter" : "" }
 { "syscall": "NtOpenKey","pid" : 612, "path" : "","parameter" : "InprocServer32" }
 { "syscall": "NtQueryKey","pid" : 612, "path" : "","parameter" : "" }
 { "syscall": "NtQueryKey","pid" : 612, "path" : "","parameter" : "" }
 { "syscall": "NtOpenKey","pid" : 612, "path" : "","parameter" : "\\REGISTRY\\USER\\S-1-5-21-3472189781-4152027690-2755707555-1000_Classes\\Wow6432Node\\CLSID\\{62BE5D10-60EB-11D0-BD3B-00A0C911CE86}\\InprocServer32" }
 { "syscall": "NtQueryValueKey","pid" : 612, "path" : "","parameter" : "" }
 { "syscall": "NtQueryValueKey","pid" : 612, "path" : "","parameter" : "InprocServer32" }
 { "syscall": "NtQueryKey","pid" : 612, "path" : "","parameter" : "" }
 { "syscall": "NtQueryKey","pid" : 612, "path" : "","parameter" : "" }
 { "syscall": "NtOpenKey","pid" : 612, "path" : "","parameter" : "\\REGISTRY\\USER\\S-1-5-21-3472189781-4152027690-2755707555-1000_Classes\\Wow6432Node\\CLSID\\{62BE5D10-60EB-11D0-BD3B-00A0C911CE86}\\InprocServer32" }
 { "syscall": "NtQueryValueKey","pid" : 612, "path" : "","parameter" : "" }
 { "syscall": "NtQueryValueKey","pid" : 612, "path" : "","parameter" : "" }
 { "syscall": "NtQueryKey","pid" : 612, "path" : "","parameter" : "" }
 { "syscall": "NtQueryKey","pid" : 612, "path" : "","parameter" : "" }
 { "syscall": "NtOpenKey","pid" : 612, "path" : "","parameter" : "\\REGISTRY\\USER\\S-1-5-21-3472189781-4152027690-2755707555-1000_Classes\\Wow6432Node\\CLSID\\{62BE5D10-60EB-11D0-BD3B-00A0C911CE86}\\InprocServer32" }
 { "syscall": "NtQueryValueKey","pid" : 612, "path" : "","parameter" : "" }
 { "syscall": "NtQueryValueKey","pid" : 612, "path" : "","parameter" : "" }
 { "syscall": "NtQueryKey","pid" : 612, "path" : "","parameter" : "" }
 { "syscall": "NtQueryKey","pid" : 612, "path" : "","parameter" : "" }
 { "syscall": "NtOpenKey","pid" : 612, "path" : "","parameter" : "\\REGISTRY\\USER\\S-1-5-21-3472189781-4152027690-2755707555-1000_Classes\\Wow6432Node\\CLSID\\{62BE5D10-60EB-11D0-BD3B-00A0C911CE86}\\InprocServer32" }
 { "syscall": "NtQueryValueKey","pid" : 612, "path" : "","parameter" : "" }
 { "syscall": "NtQueryValueKey","pid" : 612, "path" : "","parameter" : "ThreadingModel" }
 { "syscall": "NtQueryKey","pid" : 612, "path" : "","parameter" : "" }
 { "syscall": "NtQueryKey","pid" : 612, "path" : "","parameter" : "" }
 { "syscall": "NtOpenKey","pid" : 612, "path" : "","parameter" : "\\REGISTRY\\USER\\S-1-5-21-3472189781-4152027690-2755707555-1000_Classes\\Wow6432Node\\CLSID\\{62BE5D10-60EB-11D0-BD3B-00A0C911CE86}\\InprocHandler32" }
 { "syscall": "NtQueryObject","pid" : 612, "path" : "","parameter" : "" }
 { "syscall": "NtQueryKey","pid" : 612, "path" : "","parameter" : "" }
 { "syscall": "NtOpenKey","pid" : 612, "path" : "","parameter" : "InprocHandler32" }
 { "syscall": "NtQueryKey","pid" : 612, "path" : "","parameter" : "" }
 { "syscall": "NtQueryKey","pid" : 612, "path" : "","parameter" : "" }
 { "syscall": "NtOpenKey","pid" : 612, "path" : "","parameter" : "\\REGISTRY\\USER\\S-1-5-21-3472189781-4152027690-2755707555-1000_Classes\\Wow6432Node\\CLSID\\{62BE5D10-60EB-11D0-BD3B-00A0C911CE86}\\InprocHandler" }
 { "syscall": "NtQueryObject","pid" : 612, "path" : "","parameter" : "" }
 { "syscall": "NtQueryKey","pid" : 612, "path" : "","parameter" : "" }
 { "syscall": "NtOpenKey","pid" : 612, "path" : "","parameter" : "InprocHandler" }
 { "syscall": "NtQueryObject","pid" : 612, "path" : "","parameter" : "" }
 { "syscall": "NtQueryKey","pid" : 612, "path" : "","parameter" : "" }
 { "syscall": "NtQueryObject","pid" : 612, "path" : "","parameter" : "" }
 { "syscall": "NtOpenKey","pid" : 612, "path" : "","parameter" : "\\REGISTRY\\MACHINE\\Software\\Wow6432Node\\Microsoft\\OLE" }
 { "syscall": "NtQueryValueKey","pid" : 612, "path" : "","parameter" : "" }
 { "syscall": "NtQueryValueKey","pid" : 612, "path" : "","parameter" : "MaxSxSHashCount" }
 { "syscall": "NtOpenProcessToken","pid" : 612, "path" : "","parameter" : "" }
 { "syscall": "NtOpenKey","pid" : 612, "path" : "","parameter" : "\\Registry\\User\\S-1-5-21-3472189781-4152027690-2755707555-1000_Classes" }
 { "syscall": "NtQueryKey","pid" : 612, "path" : "","parameter" : "" }
 { "syscall": "NtQueryKey","pid" : 612, "path" : "","parameter" : "" }
 { "syscall": "NtQueryObject","pid" : 612, "path" : "","parameter" : "" }
 { "syscall": "NtQueryKey","pid" : 612, "path" : "","parameter" : "" }
 { "syscall": "NtQueryObject","pid" : 612, "path" : "","parameter" : "" }
 { "syscall": "NtOpenKey","pid" : 612, "path" : "","parameter" : "\\REGISTRY\\USER\\S-1-5-21-3472189781-4152027690-2755707555-1000_CLASSES\\Wow6432Node\\CLSID\\{62BE5D10-60EB-11D0-BD3B-00A0C911CE86}" }
 { "syscall": "NtOpenKey","pid" : 612, "path" : "","parameter" : "\\Registry\\Machine\\Software\\Classes\\Wow6432Node\\CLSID\\{62BE5D10-60EB-11D0-BD3B-00A0C911CE86}" }
 { "syscall": "NtQueryKey","pid" : 612, "path" : "","parameter" : "" }
 { "syscall": "NtQueryKey","pid" : 612, "path" : "","parameter" : "" }
 { "syscall": "NtOpenKey","pid" : 612, "path" : "","parameter" : "\\REGISTRY\\USER\\S-1-5-21-3472189781-4152027690-2755707555-1000_Classes\\Wow6432Node\\CLSID\\{62BE5D10-60EB-11D0-BD3B-00A0C911CE86}\\TreatAs" }
 { "syscall": "NtQueryObject","pid" : 612, "path" : "","parameter" : "" }
 { "syscall": "NtQueryKey","pid" : 612, "path" : "","parameter" : "" }
 { "syscall": "NtOpenKey","pid" : 612, "path" : "","parameter" : "TreatAs" }
 { "syscall": "NtQueryAttributesFile","pid" : 612, "path" : "","parameter" : "" }
 { "syscall": "NtCreateFile","pid" : 612, "path" : "","parameter" : "\\Device\\HarddiskVolume1\\Windows\\SysWOW64\\devenum.dll" }
 { "syscall": "NtCreateFile","pid" : 612, "path" : "","parameter" : "\\Device\\HarddiskVolume1\\Windows\\SysWOW64\\devenum.dll" }
 { "syscall": "NtOpenFile","pid" : 612, "path" : "","parameter" : "" }
 { "syscall": "NtCreateFile","pid" : 612, "path" : "","parameter" : "\\Device\\HarddiskVolume1\\Windows\\SysWOW64\\devenum.dll" }
 { "syscall": "NtCreateSection","pid" : 612, "path" : "","parameter" : "" }
 { "syscall": "NtOpenSection","pid" : 612, "path" : "","parameter" : "\\Windows\\SysWOW64\\devenum.dll" }
 { "syscall": "NtQuerySection","pid" : 612, "path" : "","parameter" : "" }
 { "syscall": "NtQuerySection","pid" : 612, "path" : "","parameter" : "" }
 { "syscall": "NtProtectVirtualMemory","pid" : 612, "path" : "","parameter" : "" }
 { "syscall": "NtProtectVirtualMemory","pid" : 612, "path" : "","parameter" : "" }
 { "syscall": "NtQueryObject","pid" : 612, "path" : "","parameter" : "" }
 { "syscall": "NtQueryKey","pid" : 612, "path" : "","parameter" : "" }
 { "syscall": "NtQueryObject","pid" : 612, "path" : "","parameter" : "" }
 { "syscall": "NtOpenKey","pid" : 612, "path" : "","parameter" : "System\\CurrentControlSet\\Control\\LSA\\AccessProviders" }
 { "syscall": "NtQueryValueKey","pid" : 612, "path" : "","parameter" : "" }
 { "syscall": "NtQueryValueKey","pid" : 612, "path" : "","parameter" : "MartaExtension" }
 { "syscall": "NtQueryValueKey","pid" : 612, "path" : "","parameter" : "" }
 { "syscall": "NtQueryValueKey","pid" : 612, "path" : "","parameter" : "MartaExtension" }
 { "syscall": "NtQueryObject","pid" : 612, "path" : "","parameter" : "" }
 { "syscall": "NtOpenSection","pid" : 612, "path" : "","parameter" : "" }
 { "syscall": "NtQueryAttributesFile","pid" : 612, "path" : "","parameter" : "" }
 { "syscall": "NtCreateFile","pid" : 612, "path" : "","parameter" : "\\Device\\HarddiskVolume1\\Users\\tony\\Desktop\\PandoraRat 2.2\\ntmarta.dll" }
 { "syscall": "NtQueryAttributesFile","pid" : 612, "path" : "","parameter" : "" }
 { "syscall": "NtCreateFile","pid" : 612, "path" : "","parameter" : "\\Device\\HarddiskVolume1\\Windows\\SysWOW64\\ntmarta.dll" }
 { "syscall": "NtCreateFile","pid" : 612, "path" : "","parameter" : "\\Device\\HarddiskVolume1\\Windows\\SysWOW64\\ntmarta.dll" }
 { "syscall": "NtOpenFile","pid" : 612, "path" : "","parameter" : "" }
 { "syscall": "NtCreateFile","pid" : 612, "path" : "","parameter" : "\\Device\\HarddiskVolume1\\Windows\\SysWOW64\\ntmarta.dll" }
 { "syscall": "NtCreateSection","pid" : 612, "path" : "","parameter" : "" }
 { "syscall": "NtOpenSection","pid" : 612, "path" : "","parameter" : "\\Windows\\SysWOW64\\ntmarta.dll" }
 { "syscall": "NtQuerySection","pid" : 612, "path" : "","parameter" : "" }
 { "syscall": "NtQuerySection","pid" : 612, "path" : "","parameter" : "" }
 { "syscall": "NtProtectVirtualMemory","pid" : 612, "path" : "","parameter" : "" }
 { "syscall": "NtQueryObject","pid" : 612, "path" : "","parameter" : "" }
 { "syscall": "NtOpenSection","pid" : 612, "path" : "","parameter" : "" }
 { "syscall": "NtOpenSection","pid" : 612, "path" : "","parameter" : "\\Windows\\SysWOW64\\Wldap32.dll" }
 { "syscall": "NtQuerySection","pid" : 612, "path" : "","parameter" : "" }
 { "syscall": "NtQuerySection","pid" : 612, "path" : "","parameter" : "" }
 { "syscall": "NtProtectVirtualMemory","pid" : 612, "path" : "","parameter" : "" }
 { "syscall": "NtProtectVirtualMemory","pid" : 612, "path" : "","parameter" : "" }
 { "syscall": "NtProtectVirtualMemory","pid" : 612, "path" : "","parameter" : "" }
 { "syscall": "NtTraceControl","pid" : 612, "path" : "","parameter" : "" }
 { "syscall": "NtQueryObject","pid" : 612, "path" : "","parameter" : "" }
 { "syscall": "NtQueryKey","pid" : 612, "path" : "","parameter" : "" }
 { "syscall": "NtQueryObject","pid" : 612, "path" : "","parameter" : "" }
 { "syscall": "NtOpenKey","pid" : 612, "path" : "","parameter" : "System\\CurrentControlSet\\Services\\LDAP" }
 { "syscall": "NtQueryValueKey","pid" : 612, "path" : "","parameter" : "" }
 { "syscall": "NtQueryValueKey","pid" : 612, "path" : "","parameter" : "LdapClientIntegrity" }
 { "syscall": "NtQueryObject","pid" : 612, "path" : "","parameter" : "" }
 { "syscall": "NtQueryKey","pid" : 612, "path" : "","parameter" : "" }
 { "syscall": "NtQueryObject","pid" : 612, "path" : "","parameter" : "" }
 { "syscall": "NtOpenKey","pid" : 612, "path" : "","parameter" : "System\\CurrentControlSet\\Services\\LDAP" }
 { "syscall": "NtQueryValueKey","pid" : 612, "path" : "","parameter" : "" }
 { "syscall": "NtQueryValueKey","pid" : 612, "path" : "","parameter" : "UseOldHostResolutionOrder" }
 { "syscall": "NtQueryObject","pid" : 612, "path" : "","parameter" : "" }
 { "syscall": "NtQueryKey","pid" : 612, "path" : "","parameter" : "" }
 { "syscall": "NtQueryObject","pid" : 612, "path" : "","parameter" : "" }
 { "syscall": "NtOpenKey","pid" : 612, "path" : "","parameter" : "System\\CurrentControlSet\\Services\\LDAP" }
 { "syscall": "NtQueryValueKey","pid" : 612, "path" : "","parameter" : "" }
 { "syscall": "NtQueryValueKey","pid" : 612, "path" : "","parameter" : "UseHostnameAsAlias" }
 { "syscall": "NtQueryObject","pid" : 612, "path" : "","parameter" : "" }
 { "syscall": "NtCreateMutant","pid" : 612, "path" : "","parameter" : "" }
 { "syscall": "NtQueryObject","pid" : 612, "path" : "","parameter" : "" }
 { "syscall": "NtQueryKey","pid" : 612, "path" : "","parameter" : "" }
 { "syscall": "NtQueryObject","pid" : 612, "path" : "","parameter" : "" }
 { "syscall": "NtOpenKey","pid" : 612, "path" : "","parameter" : "Software\\Microsoft\\ActiveMovie\\devenum" }
 { "syscall": "NtQueryValueKey","pid" : 612, "path" : "","parameter" : "" }
 { "syscall": "NtQueryValueKey","pid" : 612, "path" : "","parameter" : "Version" }
 { "syscall": "NtQueryKey","pid" : 612, "path" : "","parameter" : "" }
 { "syscall": "NtQueryKey","pid" : 612, "path" : "","parameter" : "" }
 { "syscall": "NtQueryObject","pid" : 612, "path" : "","parameter" : "" }
 { "syscall": "NtQueryKey","pid" : 612, "path" : "","parameter" : "" }
 { "syscall": "NtQueryObject","pid" : 612, "path" : "","parameter" : "" }
 { "syscall": "NtOpenKey","pid" : 612, "path" : "","parameter" : "\\REGISTRY\\USER\\S-1-5-21-3472189781-4152027690-2755707555-1000_CLASSES\\Wow6432Node\\CLSID\\{860BB310-5D01-11D0-BD3B-00A0C911CE86}" }
 { "syscall": "NtOpenKey","pid" : 612, "path" : "","parameter" : "\\Registry\\Machine\\Software\\Classes\\Wow6432Node\\CLSID\\{860BB310-5D01-11D0-BD3B-00A0C911CE86}" }
 { "syscall": "NtQueryKey","pid" : 612, "path" : "","parameter" : "" }
 { "syscall": "NtQueryKey","pid" : 612, "path" : "","parameter" : "" }
 { "syscall": "NtOpenKey","pid" : 612, "path" : "","parameter" : "\\REGISTRY\\USER\\S-1-5-21-3472189781-4152027690-2755707555-1000_Classes\\Wow6432Node\\CLSID\\{860BB310-5D01-11D0-BD3B-00A0C911CE86}\\TreatAs" }
 { "syscall": "NtQueryObject","pid" : 612, "path" : "","parameter" : "" }
 { "syscall": "NtQueryKey","pid" : 612, "path" : "","parameter" : "" }
 { "syscall": "NtOpenKey","pid" : 612, "path" : "","parameter" : "TreatAs" }
 { "syscall": "NtQueryKey","pid" : 612, "path" : "","parameter" : "" }
 { "syscall": "NtQueryKey","pid" : 612, "path" : "","parameter" : "" }
 { "syscall": "NtQueryKey","pid" : 612, "path" : "","parameter" : "" }
 { "syscall": "NtQueryKey","pid" : 612, "path" : "","parameter" : "" }
 { "syscall": "NtOpenKey","pid" : 612, "path" : "","parameter" : "\\REGISTRY\\USER\\S-1-5-21-3472189781-4152027690-2755707555-1000_Classes\\Wow6432Node\\CLSID\\{860BB310-5D01-11D0-BD3B-00A0C911CE86}\\Progid" }
 { "syscall": "NtQueryObject","pid" : 612, "path" : "","parameter" : "" }
 { "syscall": "NtQueryKey","pid" : 612, "path" : "","parameter" : "" }
 { "syscall": "NtOpenKey","pid" : 612, "path" : "","parameter" : "Progid" }
 { "syscall": "NtQueryKey","pid" : 612, "path" : "","parameter" : "" }
 { "syscall": "NtQueryObject","pid" : 612, "path" : "","parameter" : "" }
 { "syscall": "NtQueryKey","pid" : 612, "path" : "","parameter" : "" }
 { "syscall": "NtOpenKey","pid" : 612, "path" : "","parameter" : "CLSID\\{860BB310-5D01-11D0-BD3B-00A0C911CE86}" }
 { "syscall": "NtOpenKey","pid" : 612, "path" : "","parameter" : "\\Registry\\Machine\\Software\\Classes\\CLSID\\{860BB310-5D01-11D0-BD3B-00A0C911CE86}" }
 { "syscall": "NtQueryKey","pid" : 612, "path" : "","parameter" : "" }
 { "syscall": "NtQueryKey","pid" : 612, "path" : "","parameter" : "" }
 { "syscall": "NtOpenKey","pid" : 612, "path" : "","parameter" : "\\REGISTRY\\USER\\S-1-5-21-3472189781-4152027690-2755707555-1000_Classes\\Wow6432Node\\CLSID\\{860BB310-5D01-11D0-BD3B-00A0C911CE86}" }
 { "syscall": "NtQueryValueKey","pid" : 612, "path" : "","parameter" : "" }
 { "syscall": "NtQueryValueKey","pid" : 612, "path" : "","parameter" : "" }
 { "syscall": "NtQueryKey","pid" : 612, "path" : "","parameter" : "" }
 { "syscall": "NtQueryKey","pid" : 612, "path" : "","parameter" : "" }
 { "syscall": "NtOpenKey","pid" : 612, "path" : "","parameter" : "\\REGISTRY\\USER\\S-1-5-21-3472189781-4152027690-2755707555-1000_Classes\\Wow6432Node\\CLSID\\{860BB310-5D01-11D0-BD3B-00A0C911CE86}" }
 { "syscall": "NtQueryValueKey","pid" : 612, "path" : "","parameter" : "" }
 { "syscall": "NtQueryValueKey","pid" : 612, "path" : "","parameter" : "" }
 { "syscall": "NtQueryKey","pid" : 612, "path" : "","parameter" : "" }
 { "syscall": "NtQueryKey","pid" : 612, "path" : "","parameter" : "" }
 { "syscall": "NtOpenKey","pid" : 612, "path" : "","parameter" : "\\REGISTRY\\USER\\S-1-5-21-3472189781-4152027690-2755707555-1000_Classes\\Wow6432Node\\CLSID\\{860BB310-5D01-11D0-BD3B-00A0C911CE86}\\InprocServer32" }
 { "syscall": "NtQueryObject","pid" : 612, "path" : "","parameter" : "" }
 { "syscall": "NtQueryKey","pid" : 612, "path" : "","parameter" : "" }
 { "syscall": "NtOpenKey","pid" : 612, "path" : "","parameter" : "InprocServer32" }
 { "syscall": "NtQueryKey","pid" : 612, "path" : "","parameter" : "" }
 { "syscall": "NtQueryKey","pid" : 612, "path" : "","parameter" : "" }
 { "syscall": "NtOpenKey","pid" : 612, "path" : "","parameter" : "\\REGISTRY\\USER\\S-1-5-21-3472189781-4152027690-2755707555-1000_Classes\\Wow6432Node\\CLSID\\{860BB310-5D01-11D0-BD3B-00A0C911CE86}\\InprocServer32" }
 { "syscall": "NtQueryValueKey","pid" : 612, "path" : "","parameter" : "" }
 { "syscall": "NtQueryValueKey","pid" : 612, "path" : "","parameter" : "InprocServer32" }
 { "syscall": "NtQueryKey","pid" : 612, "path" : "","parameter" : "" }
 { "syscall": "NtQueryKey","pid" : 612, "path" : "","parameter" : "" }
 { "syscall": "NtOpenKey","pid" : 612, "path" : "","parameter" : "\\REGISTRY\\USER\\S-1-5-21-3472189781-4152027690-2755707555-1000_Classes\\Wow6432Node\\CLSID\\{860BB310-5D01-11D0-BD3B-00A0C911CE86}\\InprocServer32" }
 { "syscall": "NtQueryValueKey","pid" : 612, "path" : "","parameter" : "" }
 { "syscall": "NtQueryValueKey","pid" : 612, "path" : "","parameter" : "" }
 { "syscall": "NtQueryKey","pid" : 612, "path" : "","parameter" : "" }
 { "syscall": "NtQueryKey","pid" : 612, "path" : "","parameter" : "" }
 { "syscall": "NtOpenKey","pid" : 612, "path" : "","parameter" : "\\REGISTRY\\USER\\S-1-5-21-3472189781-4152027690-2755707555-1000_Classes\\Wow6432Node\\CLSID\\{860BB310-5D01-11D0-BD3B-00A0C911CE86}\\InprocServer32" }
 { "syscall": "NtQueryValueKey","pid" : 612, "path" : "","parameter" : "" }
 { "syscall": "NtQueryValueKey","pid" : 612, "path" : "","parameter" : "" }
 { "syscall": "NtQueryKey","pid" : 612, "path" : "","parameter" : "" }
 { "syscall": "NtQueryKey","pid" : 612, "path" : "","parameter" : "" }
 { "syscall": "NtOpenKey","pid" : 612, "path" : "","parameter" : "\\REGISTRY\\USER\\S-1-5-21-3472189781-4152027690-2755707555-1000_Classes\\Wow6432Node\\CLSID\\{860BB310-5D01-11D0-BD3B-00A0C911CE86}\\InprocServer32" }
 { "syscall": "NtQueryValueKey","pid" : 612, "path" : "","parameter" : "" }
 { "syscall": "NtQueryValueKey","pid" : 612, "path" : "","parameter" : "ThreadingModel" }
 { "syscall": "NtQueryKey","pid" : 612, "path" : "","parameter" : "" }
 { "syscall": "NtQueryKey","pid" : 612, "path" : "","parameter" : "" }
 { "syscall": "NtOpenKey","pid" : 612, "path" : "","parameter" : "\\REGISTRY\\USER\\S-1-5-21-3472189781-4152027690-2755707555-1000_Classes\\Wow6432Node\\CLSID\\{860BB310-5D01-11D0-BD3B-00A0C911CE86}\\InprocHandler32" }
 { "syscall": "NtQueryObject","pid" : 612, "path" : "","parameter" : "" }
 { "syscall": "NtQueryKey","pid" : 612, "path" : "","parameter" : "" }
 { "syscall": "NtOpenKey","pid" : 612, "path" : "","parameter" : "InprocHandler32" }
 { "syscall": "NtQueryKey","pid" : 612, "path" : "","parameter" : "" }
 { "syscall": "NtQueryKey","pid" : 612, "path" : "","parameter" : "" }
 { "syscall": "NtOpenKey","pid" : 612, "path" : "","parameter" : "\\REGISTRY\\USER\\S-1-5-21-3472189781-4152027690-2755707555-1000_Classes\\Wow6432Node\\CLSID\\{860BB310-5D01-11D0-BD3B-00A0C911CE86}\\InprocHandler" }
 { "syscall": "NtQueryObject","pid" : 612, "path" : "","parameter" : "" }
 { "syscall": "NtQueryKey","pid" : 612, "path" : "","parameter" : "" }
 { "syscall": "NtOpenKey","pid" : 612, "path" : "","parameter" : "InprocHandler" }
 { "syscall": "NtOpenProcessToken","pid" : 612, "path" : "","parameter" : "" }
 { "syscall": "NtOpenKey","pid" : 612, "path" : "","parameter" : "\\Registry\\User\\S-1-5-21-3472189781-4152027690-2755707555-1000_Classes" }
 { "syscall": "NtQueryKey","pid" : 612, "path" : "","parameter" : "" }
 { "syscall": "NtQueryKey","pid" : 612, "path" : "","parameter" : "" }
 { "syscall": "NtQueryObject","pid" : 612, "path" : "","parameter" : "" }
 { "syscall": "NtQueryKey","pid" : 612, "path" : "","parameter" : "" }
 { "syscall": "NtQueryObject","pid" : 612, "path" : "","parameter" : "" }
 { "syscall": "NtOpenKey","pid" : 612, "path" : "","parameter" : "\\REGISTRY\\USER\\S-1-5-21-3472189781-4152027690-2755707555-1000_CLASSES\\Wow6432Node\\CLSID\\{860BB310-5D01-11D0-BD3B-00A0C911CE86}" }
 { "syscall": "NtOpenKey","pid" : 612, "path" : "","parameter" : "\\Registry\\Machine\\Software\\Classes\\Wow6432Node\\CLSID\\{860BB310-5D01-11D0-BD3B-00A0C911CE86}" }
 { "syscall": "NtQueryKey","pid" : 612, "path" : "","parameter" : "" }
 { "syscall": "NtQueryKey","pid" : 612, "path" : "","parameter" : "" }
 { "syscall": "NtOpenKey","pid" : 612, "path" : "","parameter" : "\\REGISTRY\\USER\\S-1-5-21-3472189781-4152027690-2755707555-1000_Classes\\Wow6432Node\\CLSID\\{860BB310-5D01-11D0-BD3B-00A0C911CE86}\\TreatAs" }
 { "syscall": "NtQueryObject","pid" : 612, "path" : "","parameter" : "" }
 { "syscall": "NtQueryKey","pid" : 612, "path" : "","parameter" : "" }
 { "syscall": "NtOpenKey","pid" : 612, "path" : "","parameter" : "TreatAs" }
 { "syscall": "NtQueryObject","pid" : 612, "path" : "","parameter" : "" }
 { "syscall": "NtQueryKey","pid" : 612, "path" : "","parameter" : "" }
 { "syscall": "NtQueryObject","pid" : 612, "path" : "","parameter" : "" }
 { "syscall": "NtOpenKey","pid" : 612, "path" : "","parameter" : "System\\Setup" }
 { "syscall": "NtQueryValueKey","pid" : 612, "path" : "","parameter" : "" }
 { "syscall": "NtQueryValueKey","pid" : 612, "path" : "","parameter" : "SystemSetupInProgress" }
 { "syscall": "NtCreateMutant","pid" : 612, "path" : "","parameter" : "" }
 { "syscall": "NtCreateMutant","pid" : 612, "path" : "","parameter" : "" }
 { "syscall": "NtAlpcConnectPort","pid" : 612, "path" : "","parameter" : "" }
 { "syscall": "NtCreateMutant","pid" : 612, "path" : "","parameter" : "" }
 { "syscall": "NtQueryObject","pid" : 612, "path" : "","parameter" : "" }
 { "syscall": "NtOpenSection","pid" : 612, "path" : "","parameter" : "" }
 { "syscall": "NtOpenSection","pid" : 612, "path" : "","parameter" : "\\Windows\\SysWOW64\\wintrust.dll" }
 { "syscall": "NtQuerySection","pid" : 612, "path" : "","parameter" : "" }
 { "syscall": "NtQuerySection","pid" : 612, "path" : "","parameter" : "" }
 { "syscall": "NtProtectVirtualMemory","pid" : 612, "path" : "","parameter" : "" }
 { "syscall": "NtProtectVirtualMemory","pid" : 612, "path" : "","parameter" : "" }
 { "syscall": "NtCreateMutant","pid" : 612, "path" : "","parameter" : "" }
 { "syscall": "NtCreateMutant","pid" : 612, "path" : "","parameter" : "" }
 { "syscall": "NtQueryObject","pid" : 612, "path" : "","parameter" : "" }
 { "syscall": "NtQueryKey","pid" : 612, "path" : "","parameter" : "" }
 { "syscall": "NtQueryObject","pid" : 612, "path" : "","parameter" : "" }
 { "syscall": "NtOpenKey","pid" : 612, "path" : "","parameter" : "\\REGISTRY\\MACHINE\\SOFTWARE\\Wow6432Node\\Microsoft\\Windows NT\\CurrentVersion\\msasn1" }
 { "syscall": "NtQueryObject","pid" : 612, "path" : "","parameter" : "" }
 { "syscall": "NtQueryKey","pid" : 612, "path" : "","parameter" : "" }
 { "syscall": "NtQueryObject","pid" : 612, "path" : "","parameter" : "" }
 { "syscall": "NtOpenKey","pid" : 612, "path" : "","parameter" : "Software\\Microsoft\\ActiveMovie\\devenum\\{860BB310-5D01-11D0-BD3B-00A0C911CE86}" }
 { "syscall": "NtOpenKey","pid" : 612, "path" : "","parameter" : "\\REGISTRY\\USER\\S-1-5-21-3472189781-4152027690-2755707555-1000_Classes" }
 { "syscall": "NtQueryKey","pid" : 612, "path" : "","parameter" : "" }
 { "syscall": "NtQueryKey","pid" : 612, "path" : "","parameter" : "" }
 { "syscall": "NtQueryObject","pid" : 612, "path" : "","parameter" : "" }
 { "syscall": "NtQueryKey","pid" : 612, "path" : "","parameter" : "" }
 { "syscall": "NtQueryObject","pid" : 612, "path" : "","parameter" : "" }
 { "syscall": "NtOpenKey","pid" : 612, "path" : "","parameter" : "\\REGISTRY\\USER\\S-1-5-21-3472189781-4152027690-2755707555-1000_CLASSES\\Wow6432Node\\CLSID" }
 { "syscall": "NtQueryKey","pid" : 612, "path" : "","parameter" : "" }
 { "syscall": "NtQueryKey","pid" : 612, "path" : "","parameter" : "" }
 { "syscall": "NtQueryObject","pid" : 612, "path" : "","parameter" : "" }
 { "syscall": "NtQueryKey","pid" : 612, "path" : "","parameter" : "" }
 { "syscall": "NtQueryObject","pid" : 612, "path" : "","parameter" : "" }
 { "syscall": "NtOpenKey","pid" : 612, "path" : "","parameter" : "{860BB310-5D01-11D0-BD3B-00A0C911CE86}\\Instance" }
 { "syscall": "NtOpenKey","pid" : 612, "path" : "","parameter" : "\\Registry\\Machine\\Software\\Classes\\Wow6432Node\\CLSID\\{860BB310-5D01-11D0-BD3B-00A0C911CE86}\\Instance" }
 { "syscall": "NtQueryObject","pid" : 612, "path" : "","parameter" : "" }
 { "syscall": "NtOpenSection","pid" : 612, "path" : "","parameter" : "" }
 { "syscall": "NtQueryAttributesFile","pid" : 612, "path" : "","parameter" : "" }
 { "syscall": "NtCreateFile","pid" : 612, "path" : "","parameter" : "\\Device\\HarddiskVolume1\\Users\\tony\\Desktop\\PandoraRat 2.2\\msdmo.dll" }
 { "syscall": "NtQueryAttributesFile","pid" : 612, "path" : "","parameter" : "" }
 { "syscall": "NtCreateFile","pid" : 612, "path" : "","parameter" : "\\Device\\HarddiskVolume1\\Windows\\SysWOW64\\msdmo.dll" }
 { "syscall": "NtCreateFile","pid" : 612, "path" : "","parameter" : "\\Device\\HarddiskVolume1\\Windows\\SysWOW64\\msdmo.dll" }
 { "syscall": "NtOpenFile","pid" : 612, "path" : "","parameter" : "" }
 { "syscall": "NtCreateFile","pid" : 612, "path" : "","parameter" : "\\Device\\HarddiskVolume1\\Windows\\SysWOW64\\msdmo.dll" }
 { "syscall": "NtCreateSection","pid" : 612, "path" : "","parameter" : "" }
 { "syscall": "NtOpenSection","pid" : 612, "path" : "","parameter" : "\\Windows\\SysWOW64\\msdmo.dll" }
 { "syscall": "NtQuerySection","pid" : 612, "path" : "","parameter" : "" }
 { "syscall": "NtQuerySection","pid" : 612, "path" : "","parameter" : "" }
 { "syscall": "NtProtectVirtualMemory","pid" : 612, "path" : "","parameter" : "" }
 { "syscall": "NtProtectVirtualMemory","pid" : 612, "path" : "","parameter" : "" }
 { "syscall": "NtQueryKey","pid" : 612, "path" : "","parameter" : "" }
 { "syscall": "NtQueryKey","pid" : 612, "path" : "","parameter" : "" }
 { "syscall": "NtQueryObject","pid" : 612, "path" : "","parameter" : "" }
 { "syscall": "NtQueryKey","pid" : 612, "path" : "","parameter" : "" }
 { "syscall": "NtQueryObject","pid" : 612, "path" : "","parameter" : "" }
 { "syscall": "NtOpenKey","pid" : 612, "path" : "","parameter" : "\\REGISTRY\\USER\\S-1-5-21-3472189781-4152027690-2755707555-1000_CLASSES\\Wow6432Node\\DirectShow\\MediaObjects" }
 { "syscall": "NtOpenKey","pid" : 612, "path" : "","parameter" : "\\Registry\\Machine\\Software\\Classes\\Wow6432Node\\DirectShow\\MediaObjects" }
 { "syscall": "NtQueryKey","pid" : 612, "path" : "","parameter" : "" }
 { "syscall": "NtQueryKey","pid" : 612, "path" : "","parameter" : "" }
 { "syscall": "NtOpenKey","pid" : 612, "path" : "","parameter" : "\\REGISTRY\\USER\\S-1-5-21-3472189781-4152027690-2755707555-1000_Classes\\Wow6432Node\\DirectShow\\MediaObjects\\Categories\\860bb310-5d01-11d0-bd3b-00a0c911ce86" }
 { "syscall": "NtQueryObject","pid" : 612, "path" : "","parameter" : "" }
 { "syscall": "NtQueryKey","pid" : 612, "path" : "","parameter" : "" }
 { "syscall": "NtOpenKey","pid" : 612, "path" : "","parameter" : "Categories\\860bb310-5d01-11d0-bd3b-00a0c911ce86" }
 { "syscall": "NtQueryObject","pid" : 612, "path" : "","parameter" : "" }
 { "syscall": "NtOpenSection","pid" : 612, "path" : "","parameter" : "" }
 { "syscall": "NtQueryAttributesFile","pid" : 612, "path" : "","parameter" : "" }
 { "syscall": "NtCreateFile","pid" : 612, "path" : "","parameter" : "\\Device\\HarddiskVolume1\\Users\\tony\\Desktop\\PandoraRat 2.2\\avicap32.dll" }
 { "syscall": "NtQueryAttributesFile","pid" : 612, "path" : "","parameter" : "" }
 { "syscall": "NtCreateFile","pid" : 612, "path" : "","parameter" : "\\Device\\HarddiskVolume1\\Windows\\SysWOW64\\avicap32.dll" }
 { "syscall": "NtCreateFile","pid" : 612, "path" : "","parameter" : "\\Device\\HarddiskVolume1\\Windows\\SysWOW64\\avicap32.dll" }
 { "syscall": "NtOpenFile","pid" : 612, "path" : "","parameter" : "" }
 { "syscall": "NtCreateFile","pid" : 612, "path" : "","parameter" : "\\Device\\HarddiskVolume1\\Windows\\SysWOW64\\avicap32.dll" }
 { "syscall": "NtCreateSection","pid" : 612, "path" : "","parameter" : "" }
 { "syscall": "NtOpenSection","pid" : 612, "path" : "","parameter" : "\\Windows\\SysWOW64\\avicap32.dll" }
 { "syscall": "NtQuerySection","pid" : 612, "path" : "","parameter" : "" }
 { "syscall": "NtQuerySection","pid" : 612, "path" : "","parameter" : "" }
 { "syscall": "NtProtectVirtualMemory","pid" : 612, "path" : "","parameter" : "" }
 { "syscall": "NtQueryObject","pid" : 612, "path" : "","parameter" : "" }
 { "syscall": "NtOpenSection","pid" : 612, "path" : "","parameter" : "" }
 { "syscall": "NtQueryAttributesFile","pid" : 612, "path" : "","parameter" : "" }
 { "syscall": "NtCreateFile","pid" : 612, "path" : "","parameter" : "\\Device\\HarddiskVolume1\\Users\\tony\\Desktop\\PandoraRat 2.2\\MSVFW32.dll" }
 { "syscall": "NtQueryAttributesFile","pid" : 612, "path" : "","parameter" : "" }
 { "syscall": "NtCreateFile","pid" : 612, "path" : "","parameter" : "\\Device\\HarddiskVolume1\\Windows\\SysWOW64\\MSVFW32.dll" }
 { "syscall": "NtCreateFile","pid" : 612, "path" : "","parameter" : "\\Device\\HarddiskVolume1\\Windows\\SysWOW64\\MSVFW32.dll" }
 { "syscall": "NtOpenFile","pid" : 612, "path" : "","parameter" : "" }
 { "syscall": "NtCreateFile","pid" : 612, "path" : "","parameter" : "\\Device\\HarddiskVolume1\\Windows\\SysWOW64\\MSVFW32.dll" }
 { "syscall": "NtCreateSection","pid" : 612, "path" : "","parameter" : "" }
 { "syscall": "NtOpenSection","pid" : 612, "path" : "","parameter" : "\\Windows\\SysWOW64\\msvfw32.dll" }
 { "syscall": "NtQuerySection","pid" : 612, "path" : "","parameter" : "" }
 { "syscall": "NtQuerySection","pid" : 612, "path" : "","parameter" : "" }
 { "syscall": "NtProtectVirtualMemory","pid" : 612, "path" : "","parameter" : "" }
 { "syscall": "NtProtectVirtualMemory","pid" : 612, "path" : "","parameter" : "" }
 { "syscall": "NtProtectVirtualMemory","pid" : 612, "path" : "","parameter" : "" }
 { "syscall": "NtQueryObject","pid" : 612, "path" : "","parameter" : "" }
 { "syscall": "NtQueryKey","pid" : 612, "path" : "","parameter" : "" }
 { "syscall": "NtQueryObject","pid" : 612, "path" : "","parameter" : "" }
 { "syscall": "NtOpenKey","pid" : 612, "path" : "","parameter" : "\\REGISTRY\\MACHINE\\Software\\Wow6432Node\\Microsoft\\Windows NT\\CurrentVersion\\VFW" }
 { "syscall": "NtQueryObject","pid" : 612, "path" : "","parameter" : "" }
 { "syscall": "NtQueryKey","pid" : 612, "path" : "","parameter" : "" }
 { "syscall": "NtQueryObject","pid" : 612, "path" : "","parameter" : "" }
 { "syscall": "NtOpenKey","pid" : 612, "path" : "","parameter" : "SYSTEM\\CurrentControlSet\\Control\\MediaResources\\msvideo" }
 { "syscall": "NtEnumerateKey","pid" : 612, "path" : "","parameter" : "" }
 { "syscall": "NtOpenKey","pid" : 612, "path" : "","parameter" : "\\Registry\\Machine\\Software\\Wow6432Node\\Microsoft\\Windows NT\\CurrentVersion\\Drivers32" }
 { "syscall": "NtQueryValueKey","pid" : 612, "path" : "","parameter" : "" }
 { "syscall": "NtQueryValueKey","pid" : 612, "path" : "","parameter" : "msvideo" }
 { "syscall": "NtOpenKey","pid" : 612, "path" : "","parameter" : "\\Registry\\Machine\\Software\\Wow6432Node\\Microsoft\\Windows NT\\CurrentVersion\\Drivers32" }
 { "syscall": "NtQueryValueKey","pid" : 612, "path" : "","parameter" : "" }
 { "syscall": "NtQueryValueKey","pid" : 612, "path" : "","parameter" : "msvideo1" }
 { "syscall": "NtOpenKey","pid" : 612, "path" : "","parameter" : "\\Registry\\Machine\\Software\\Wow6432Node\\Microsoft\\Windows NT\\CurrentVersion\\Drivers32" }
 { "syscall": "NtQueryValueKey","pid" : 612, "path" : "","parameter" : "" }
 { "syscall": "NtQueryValueKey","pid" : 612, "path" : "","parameter" : "msvideo2" }
 { "syscall": "NtOpenKey","pid" : 612, "path" : "","parameter" : "\\Registry\\Machine\\Software\\Wow6432Node\\Microsoft\\Windows NT\\CurrentVersion\\Drivers32" }
 { "syscall": "NtQueryValueKey","pid" : 612, "path" : "","parameter" : "" }
 { "syscall": "NtQueryValueKey","pid" : 612, "path" : "","parameter" : "msvideo3" }
 { "syscall": "NtOpenKey","pid" : 612, "path" : "","parameter" : "\\Registry\\Machine\\Software\\Wow6432Node\\Microsoft\\Windows NT\\CurrentVersion\\Drivers32" }
 { "syscall": "NtQueryValueKey","pid" : 612, "path" : "","parameter" : "" }
 { "syscall": "NtQueryValueKey","pid" : 612, "path" : "","parameter" : "msvideo4" }
 { "syscall": "NtOpenKey","pid" : 612, "path" : "","parameter" : "\\Registry\\Machine\\Software\\Wow6432Node\\Microsoft\\Windows NT\\CurrentVersion\\Drivers32" }
 { "syscall": "NtQueryValueKey","pid" : 612, "path" : "","parameter" : "" }
 { "syscall": "NtQueryValueKey","pid" : 612, "path" : "","parameter" : "msvideo5" }
 { "syscall": "NtOpenKey","pid" : 612, "path" : "","parameter" : "\\Registry\\Machine\\Software\\Wow6432Node\\Microsoft\\Windows NT\\CurrentVersion\\Drivers32" }
 { "syscall": "NtQueryValueKey","pid" : 612, "path" : "","parameter" : "" }
 { "syscall": "NtQueryValueKey","pid" : 612, "path" : "","parameter" : "msvideo6" }
 { "syscall": "NtOpenKey","pid" : 612, "path" : "","parameter" : "\\Registry\\Machine\\Software\\Wow6432Node\\Microsoft\\Windows NT\\CurrentVersion\\Drivers32" }
 { "syscall": "NtQueryValueKey","pid" : 612, "path" : "","parameter" : "" }
 { "syscall": "NtQueryValueKey","pid" : 612, "path" : "","parameter" : "msvideo7" }
 { "syscall": "NtOpenKey","pid" : 612, "path" : "","parameter" : "\\Registry\\Machine\\Software\\Wow6432Node\\Microsoft\\Windows NT\\CurrentVersion\\Drivers32" }
 { "syscall": "NtQueryValueKey","pid" : 612, "path" : "","parameter" : "" }
 { "syscall": "NtQueryValueKey","pid" : 612, "path" : "","parameter" : "msvideo8" }
 { "syscall": "NtOpenKey","pid" : 612, "path" : "","parameter" : "\\Registry\\Machine\\Software\\Wow6432Node\\Microsoft\\Windows NT\\CurrentVersion\\Drivers32" }
 { "syscall": "NtQueryValueKey","pid" : 612, "path" : "","parameter" : "" }
 { "syscall": "NtQueryValueKey","pid" : 612, "path" : "","parameter" : "msvideo9" }
 { "syscall": "NtQueryObject","pid" : 612, "path" : "","parameter" : "" }
 { "syscall": "NtQueryKey","pid" : 612, "path" : "","parameter" : "" }
 { "syscall": "NtQueryObject","pid" : 612, "path" : "","parameter" : "" }
 { "syscall": "NtOpenKey","pid" : 612, "path" : "","parameter" : "SYSTEM\\CurrentControlSet\\Control\\MediaResources\\msvideo" }
 { "syscall": "NtEnumerateKey","pid" : 612, "path" : "","parameter" : "" }
 { "syscall": "NtOpenKey","pid" : 612, "path" : "","parameter" : "\\Registry\\Machine\\Software\\Wow6432Node\\Microsoft\\Windows NT\\CurrentVersion\\Drivers32" }
 { "syscall": "NtQueryValueKey","pid" : 612, "path" : "","parameter" : "" }
 { "syscall": "NtQueryValueKey","pid" : 612, "path" : "","parameter" : "msvideo" }
 { "syscall": "NtOpenKey","pid" : 612, "path" : "","parameter" : "\\Registry\\Machine\\Software\\Wow6432Node\\Microsoft\\Windows NT\\CurrentVersion\\Drivers32" }
 { "syscall": "NtQueryValueKey","pid" : 612, "path" : "","parameter" : "" }
 { "syscall": "NtQueryValueKey","pid" : 612, "path" : "","parameter" : "msvideo1" }
 { "syscall": "NtOpenKey","pid" : 612, "path" : "","parameter" : "\\Registry\\Machine\\Software\\Wow6432Node\\Microsoft\\Windows NT\\CurrentVersion\\Drivers32" }
 { "syscall": "NtQueryValueKey","pid" : 612, "path" : "","parameter" : "" }
 { "syscall": "NtQueryValueKey","pid" : 612, "path" : "","parameter" : "msvideo2" }
 { "syscall": "NtOpenKey","pid" : 612, "path" : "","parameter" : "\\Registry\\Machine\\Software\\Wow6432Node\\Microsoft\\Windows NT\\CurrentVersion\\Drivers32" }
 { "syscall": "NtQueryValueKey","pid" : 612, "path" : "","parameter" : "" }
 { "syscall": "NtQueryValueKey","pid" : 612, "path" : "","parameter" : "msvideo3" }
 { "syscall": "NtOpenKey","pid" : 612, "path" : "","parameter" : "\\Registry\\Machine\\Software\\Wow6432Node\\Microsoft\\Windows NT\\CurrentVersion\\Drivers32" }
 { "syscall": "NtQueryValueKey","pid" : 612, "path" : "","parameter" : "" }
 { "syscall": "NtQueryValueKey","pid" : 612, "path" : "","parameter" : "msvideo4" }
 { "syscall": "NtOpenKey","pid" : 612, "path" : "","parameter" : "\\Registry\\Machine\\Software\\Wow6432Node\\Microsoft\\Windows NT\\CurrentVersion\\Drivers32" }
 { "syscall": "NtQueryValueKey","pid" : 612, "path" : "","parameter" : "" }
 { "syscall": "NtQueryValueKey","pid" : 612, "path" : "","parameter" : "msvideo5" }
 { "syscall": "NtOpenKey","pid" : 612, "path" : "","parameter" : "\\Registry\\Machine\\Software\\Wow6432Node\\Microsoft\\Windows NT\\CurrentVersion\\Drivers32" }
 { "syscall": "NtQueryValueKey","pid" : 612, "path" : "","parameter" : "" }
 { "syscall": "NtQueryValueKey","pid" : 612, "path" : "","parameter" : "msvideo6" }
 { "syscall": "NtOpenKey","pid" : 612, "path" : "","parameter" : "\\Registry\\Machine\\Software\\Wow6432Node\\Microsoft\\Windows NT\\CurrentVersion\\Drivers32" }
 { "syscall": "NtQueryValueKey","pid" : 612, "path" : "","parameter" : "" }
 { "syscall": "NtQueryValueKey","pid" : 612, "path" : "","parameter" : "msvideo7" }
 { "syscall": "NtOpenKey","pid" : 612, "path" : "","parameter" : "\\Registry\\Machine\\Software\\Wow6432Node\\Microsoft\\Windows NT\\CurrentVersion\\Drivers32" }
 { "syscall": "NtQueryValueKey","pid" : 612, "path" : "","parameter" : "" }
 { "syscall": "NtQueryValueKey","pid" : 612, "path" : "","parameter" : "msvideo8" }
 { "syscall": "NtOpenKey","pid" : 612, "path" : "","parameter" : "\\Registry\\Machine\\Software\\Wow6432Node\\Microsoft\\Windows NT\\CurrentVersion\\Drivers32" }
 { "syscall": "NtQueryValueKey","pid" : 612, "path" : "","parameter" : "" }
 { "syscall": "NtQueryValueKey","pid" : 612, "path" : "","parameter" : "msvideo9" }
 { "syscall": "NtQueryObject","pid" : 612, "path" : "","parameter" : "" }
 { "syscall": "NtQueryKey","pid" : 612, "path" : "","parameter" : "" }
 { "syscall": "NtQueryObject","pid" : 612, "path" : "","parameter" : "" }
 { "syscall": "NtOpenKey","pid" : 612, "path" : "","parameter" : "SYSTEM\\CurrentControlSet\\Control\\MediaResources\\msvideo" }
 { "syscall": "NtEnumerateKey","pid" : 612, "path" : "","parameter" : "" }
 { "syscall": "NtOpenKey","pid" : 612, "path" : "","parameter" : "\\Registry\\Machine\\Software\\Wow6432Node\\Microsoft\\Windows NT\\CurrentVersion\\Drivers32" }
 { "syscall": "NtQueryValueKey","pid" : 612, "path" : "","parameter" : "" }
 { "syscall": "NtQueryValueKey","pid" : 612, "path" : "","parameter" : "msvideo" }
 { "syscall": "NtOpenKey","pid" : 612, "path" : "","parameter" : "\\Registry\\Machine\\Software\\Wow6432Node\\Microsoft\\Windows NT\\CurrentVersion\\Drivers32" }
 { "syscall": "NtQueryValueKey","pid" : 612, "path" : "","parameter" : "" }
 { "syscall": "NtQueryValueKey","pid" : 612, "path" : "","parameter" : "msvideo1" }
 { "syscall": "NtOpenKey","pid" : 612, "path" : "","parameter" : "\\Registry\\Machine\\Software\\Wow6432Node\\Microsoft\\Windows NT\\CurrentVersion\\Drivers32" }
 { "syscall": "NtQueryValueKey","pid" : 612, "path" : "","parameter" : "" }
 { "syscall": "NtQueryValueKey","pid" : 612, "path" : "","parameter" : "msvideo2" }
 { "syscall": "NtOpenKey","pid" : 612, "path" : "","parameter" : "\\Registry\\Machine\\Software\\Wow6432Node\\Microsoft\\Windows NT\\CurrentVersion\\Drivers32" }
 { "syscall": "NtQueryValueKey","pid" : 612, "path" : "","parameter" : "" }
 { "syscall": "NtQueryValueKey","pid" : 612, "path" : "","parameter" : "msvideo3" }
 { "syscall": "NtOpenKey","pid" : 612, "path" : "","parameter" : "\\Registry\\Machine\\Software\\Wow6432Node\\Microsoft\\Windows NT\\CurrentVersion\\Drivers32" }
 { "syscall": "NtQueryValueKey","pid" : 612, "path" : "","parameter" : "" }
 { "syscall": "NtQueryValueKey","pid" : 612, "path" : "","parameter" : "msvideo4" }
 { "syscall": "NtOpenKey","pid" : 612, "path" : "","parameter" : "\\Registry\\Machine\\Software\\Wow6432Node\\Microsoft\\Windows NT\\CurrentVersion\\Drivers32" }
 { "syscall": "NtQueryValueKey","pid" : 612, "path" : "","parameter" : "" }
 { "syscall": "NtQueryValueKey","pid" : 612, "path" : "","parameter" : "msvideo5" }
 { "syscall": "NtOpenKey","pid" : 612, "path" : "","parameter" : "\\Registry\\Machine\\Software\\Wow6432Node\\Microsoft\\Windows NT\\CurrentVersion\\Drivers32" }
 { "syscall": "NtQueryValueKey","pid" : 612, "path" : "","parameter" : "" }
 { "syscall": "NtQueryValueKey","pid" : 612, "path" : "","parameter" : "msvideo6" }
 { "syscall": "NtOpenKey","pid" : 612, "path" : "","parameter" : "\\Registry\\Machine\\Software\\Wow6432Node\\Microsoft\\Windows NT\\CurrentVersion\\Drivers32" }
 { "syscall": "NtQueryValueKey","pid" : 612, "path" : "","parameter" : "" }
 { "syscall": "NtQueryValueKey","pid" : 612, "path" : "","parameter" : "msvideo7" }
 { "syscall": "NtOpenKey","pid" : 612, "path" : "","parameter" : "\\Registry\\Machine\\Software\\Wow6432Node\\Microsoft\\Windows NT\\CurrentVersion\\Drivers32" }
 { "syscall": "NtQueryValueKey","pid" : 612, "path" : "","parameter" : "" }
 { "syscall": "NtQueryValueKey","pid" : 612, "path" : "","parameter" : "msvideo8" }
 { "syscall": "NtOpenKey","pid" : 612, "path" : "","parameter" : "\\Registry\\Machine\\Software\\Wow6432Node\\Microsoft\\Windows NT\\CurrentVersion\\Drivers32" }
 { "syscall": "NtQueryValueKey","pid" : 612, "path" : "","parameter" : "" }
 { "syscall": "NtQueryValueKey","pid" : 612, "path" : "","parameter" : "msvideo9" }
 { "syscall": "NtQueryObject","pid" : 612, "path" : "","parameter" : "" }
 { "syscall": "NtQueryKey","pid" : 612, "path" : "","parameter" : "" }
 { "syscall": "NtQueryObject","pid" : 612, "path" : "","parameter" : "" }
 { "syscall": "NtOpenKey","pid" : 612, "path" : "","parameter" : "SYSTEM\\CurrentControlSet\\Control\\MediaResources\\msvideo" }
 { "syscall": "NtEnumerateKey","pid" : 612, "path" : "","parameter" : "" }
 { "syscall": "NtOpenKey","pid" : 612, "path" : "","parameter" : "\\Registry\\Machine\\Software\\Wow6432Node\\Microsoft\\Windows NT\\CurrentVersion\\Drivers32" }
 { "syscall": "NtQueryValueKey","pid" : 612, "path" : "","parameter" : "" }
 { "syscall": "NtQueryValueKey","pid" : 612, "path" : "","parameter" : "msvideo" }
 { "syscall": "NtOpenKey","pid" : 612, "path" : "","parameter" : "\\Registry\\Machine\\Software\\Wow6432Node\\Microsoft\\Windows NT\\CurrentVersion\\Drivers32" }
 { "syscall": "NtQueryValueKey","pid" : 612, "path" : "","parameter" : "" }
 { "syscall": "NtQueryValueKey","pid" : 612, "path" : "","parameter" : "msvideo1" }
 { "syscall": "NtOpenKey","pid" : 612, "path" : "","parameter" : "\\Registry\\Machine\\Software\\Wow6432Node\\Microsoft\\Windows NT\\CurrentVersion\\Drivers32" }
 { "syscall": "NtQueryValueKey","pid" : 612, "path" : "","parameter" : "" }
 { "syscall": "NtQueryValueKey","pid" : 612, "path" : "","parameter" : "msvideo2" }
 { "syscall": "NtOpenKey","pid" : 612, "path" : "","parameter" : "\\Registry\\Machine\\Software\\Wow6432Node\\Microsoft\\Windows NT\\CurrentVersion\\Drivers32" }
 { "syscall": "NtQueryValueKey","pid" : 612, "path" : "","parameter" : "" }
 { "syscall": "NtQueryValueKey","pid" : 612, "path" : "","parameter" : "msvideo3" }
 { "syscall": "NtOpenKey","pid" : 612, "path" : "","parameter" : "\\Registry\\Machine\\Software\\Wow6432Node\\Microsoft\\Windows NT\\CurrentVersion\\Drivers32" }
 { "syscall": "NtQueryValueKey","pid" : 612, "path" : "","parameter" : "" }
 { "syscall": "NtQueryValueKey","pid" : 612, "path" : "","parameter" : "msvideo4" }
 { "syscall": "NtOpenKey","pid" : 612, "path" : "","parameter" : "\\Registry\\Machine\\Software\\Wow6432Node\\Microsoft\\Windows NT\\CurrentVersion\\Drivers32" }
 { "syscall": "NtQueryValueKey","pid" : 612, "path" : "","parameter" : "" }
 { "syscall": "NtQueryValueKey","pid" : 612, "path" : "","parameter" : "msvideo5" }
 { "syscall": "NtOpenKey","pid" : 612, "path" : "","parameter" : "\\Registry\\Machine\\Software\\Wow6432Node\\Microsoft\\Windows NT\\CurrentVersion\\Drivers32" }
 { "syscall": "NtQueryValueKey","pid" : 612, "path" : "","parameter" : "" }
 { "syscall": "NtQueryValueKey","pid" : 612, "path" : "","parameter" : "msvideo6" }
 { "syscall": "NtOpenKey","pid" : 612, "path" : "","parameter" : "\\Registry\\Machine\\Software\\Wow6432Node\\Microsoft\\Windows NT\\CurrentVersion\\Drivers32" }
 { "syscall": "NtQueryValueKey","pid" : 612, "path" : "","parameter" : "" }
 { "syscall": "NtQueryValueKey","pid" : 612, "path" : "","parameter" : "msvideo7" }
 { "syscall": "NtOpenKey","pid" : 612, "path" : "","parameter" : "\\Registry\\Machine\\Software\\Wow6432Node\\Microsoft\\Windows NT\\CurrentVersion\\Drivers32" }
 { "syscall": "NtQueryValueKey","pid" : 612, "path" : "","parameter" : "" }
 { "syscall": "NtQueryValueKey","pid" : 612, "path" : "","parameter" : "msvideo8" }
 { "syscall": "NtOpenKey","pid" : 612, "path" : "","parameter" : "\\Registry\\Machine\\Software\\Wow6432Node\\Microsoft\\Windows NT\\CurrentVersion\\Drivers32" }
 { "syscall": "NtQueryValueKey","pid" : 612, "path" : "","parameter" : "" }
 { "syscall": "NtQueryValueKey","pid" : 612, "path" : "","parameter" : "msvideo9" }
 { "syscall": "NtQueryObject","pid" : 612, "path" : "","parameter" : "" }
 { "syscall": "NtQueryKey","pid" : 612, "path" : "","parameter" : "" }
 { "syscall": "NtQueryObject","pid" : 612, "path" : "","parameter" : "" }
 { "syscall": "NtOpenKey","pid" : 612, "path" : "","parameter" : "SYSTEM\\CurrentControlSet\\Control\\MediaResources\\msvideo" }
 { "syscall": "NtEnumerateKey","pid" : 612, "path" : "","parameter" : "" }
 { "syscall": "NtOpenKey","pid" : 612, "path" : "","parameter" : "\\Registry\\Machine\\Software\\Wow6432Node\\Microsoft\\Windows NT\\CurrentVersion\\Drivers32" }
 { "syscall": "NtQueryValueKey","pid" : 612, "path" : "","parameter" : "" }
 { "syscall": "NtQueryValueKey","pid" : 612, "path" : "","parameter" : "msvideo" }
 { "syscall": "NtOpenKey","pid" : 612, "path" : "","parameter" : "\\Registry\\Machine\\Software\\Wow6432Node\\Microsoft\\Windows NT\\CurrentVersion\\Drivers32" }
 { "syscall": "NtQueryValueKey","pid" : 612, "path" : "","parameter" : "" }
 { "syscall": "NtQueryValueKey","pid" : 612, "path" : "","parameter" : "msvideo1" }
 { "syscall": "NtOpenKey","pid" : 612, "path" : "","parameter" : "\\Registry\\Machine\\Software\\Wow6432Node\\Microsoft\\Windows NT\\CurrentVersion\\Drivers32" }
 { "syscall": "NtQueryValueKey","pid" : 612, "path" : "","parameter" : "" }
 { "syscall": "NtQueryValueKey","pid" : 612, "path" : "","parameter" : "msvideo2" }
 { "syscall": "NtOpenKey","pid" : 612, "path" : "","parameter" : "\\Registry\\Machine\\Software\\Wow6432Node\\Microsoft\\Windows NT\\CurrentVersion\\Drivers32" }
 { "syscall": "NtQueryValueKey","pid" : 612, "path" : "","parameter" : "" }
 { "syscall": "NtQueryValueKey","pid" : 612, "path" : "","parameter" : "msvideo3" }
 { "syscall": "NtOpenKey","pid" : 612, "path" : "","parameter" : "\\Registry\\Machine\\Software\\Wow6432Node\\Microsoft\\Windows NT\\CurrentVersion\\Drivers32" }
 { "syscall": "NtQueryValueKey","pid" : 612, "path" : "","parameter" : "" }
 { "syscall": "NtQueryValueKey","pid" : 612, "path" : "","parameter" : "msvideo4" }
 { "syscall": "NtOpenKey","pid" : 612, "path" : "","parameter" : "\\Registry\\Machine\\Software\\Wow6432Node\\Microsoft\\Windows NT\\CurrentVersion\\Drivers32" }
 { "syscall": "NtQueryValueKey","pid" : 612, "path" : "","parameter" : "" }
 { "syscall": "NtQueryValueKey","pid" : 612, "path" : "","parameter" : "msvideo5" }
 { "syscall": "NtOpenKey","pid" : 612, "path" : "","parameter" : "\\Registry\\Machine\\Software\\Wow6432Node\\Microsoft\\Windows NT\\CurrentVersion\\Drivers32" }
 { "syscall": "NtQueryValueKey","pid" : 612, "path" : "","parameter" : "" }
 { "syscall": "NtQueryValueKey","pid" : 612, "path" : "","parameter" : "msvideo6" }
 { "syscall": "NtOpenKey","pid" : 612, "path" : "","parameter" : "\\Registry\\Machine\\Software\\Wow6432Node\\Microsoft\\Windows NT\\CurrentVersion\\Drivers32" }
 { "syscall": "NtQueryValueKey","pid" : 612, "path" : "","parameter" : "" }
 { "syscall": "NtQueryValueKey","pid" : 612, "path" : "","parameter" : "msvideo7" }
 { "syscall": "NtOpenKey","pid" : 612, "path" : "","parameter" : "\\Registry\\Machine\\Software\\Wow6432Node\\Microsoft\\Windows NT\\CurrentVersion\\Drivers32" }
 { "syscall": "NtQueryValueKey","pid" : 612, "path" : "","parameter" : "" }
 { "syscall": "NtQueryValueKey","pid" : 612, "path" : "","parameter" : "msvideo8" }
 { "syscall": "NtOpenKey","pid" : 612, "path" : "","parameter" : "\\Registry\\Machine\\Software\\Wow6432Node\\Microsoft\\Windows NT\\CurrentVersion\\Drivers32" }
 { "syscall": "NtQueryValueKey","pid" : 612, "path" : "","parameter" : "" }
 { "syscall": "NtQueryValueKey","pid" : 612, "path" : "","parameter" : "msvideo9" }
 { "syscall": "NtQueryObject","pid" : 612, "path" : "","parameter" : "" }
 { "syscall": "NtQueryKey","pid" : 612, "path" : "","parameter" : "" }
 { "syscall": "NtQueryObject","pid" : 612, "path" : "","parameter" : "" }
 { "syscall": "NtOpenKey","pid" : 612, "path" : "","parameter" : "SYSTEM\\CurrentControlSet\\Control\\MediaResources\\msvideo" }
 { "syscall": "NtEnumerateKey","pid" : 612, "path" : "","parameter" : "" }
 { "syscall": "NtOpenKey","pid" : 612, "path" : "","parameter" : "\\Registry\\Machine\\Software\\Wow6432Node\\Microsoft\\Windows NT\\CurrentVersion\\Drivers32" }
 { "syscall": "NtQueryValueKey","pid" : 612, "path" : "","parameter" : "" }
 { "syscall": "NtQueryValueKey","pid" : 612, "path" : "","parameter" : "msvideo" }
 { "syscall": "NtOpenKey","pid" : 612, "path" : "","parameter" : "\\Registry\\Machine\\Software\\Wow6432Node\\Microsoft\\Windows NT\\CurrentVersion\\Drivers32" }
 { "syscall": "NtQueryValueKey","pid" : 612, "path" : "","parameter" : "" }
 { "syscall": "NtQueryValueKey","pid" : 612, "path" : "","parameter" : "msvideo1" }
 { "syscall": "NtOpenKey","pid" : 612, "path" : "","parameter" : "\\Registry\\Machine\\Software\\Wow6432Node\\Microsoft\\Windows NT\\CurrentVersion\\Drivers32" }
 { "syscall": "NtQueryValueKey","pid" : 612, "path" : "","parameter" : "" }
 { "syscall": "NtQueryValueKey","pid" : 612, "path" : "","parameter" : "msvideo2" }
 { "syscall": "NtOpenKey","pid" : 612, "path" : "","parameter" : "\\Registry\\Machine\\Software\\Wow6432Node\\Microsoft\\Windows NT\\CurrentVersion\\Drivers32" }
 { "syscall": "NtQueryValueKey","pid" : 612, "path" : "","parameter" : "" }
 { "syscall": "NtQueryValueKey","pid" : 612, "path" : "","parameter" : "msvideo3" }
 { "syscall": "NtOpenKey","pid" : 612, "path" : "","parameter" : "\\Registry\\Machine\\Software\\Wow6432Node\\Microsoft\\Windows NT\\CurrentVersion\\Drivers32" }
 { "syscall": "NtQueryValueKey","pid" : 612, "path" : "","parameter" : "" }
 { "syscall": "NtQueryValueKey","pid" : 612, "path" : "","parameter" : "msvideo4" }
 { "syscall": "NtOpenKey","pid" : 612, "path" : "","parameter" : "\\Registry\\Machine\\Software\\Wow6432Node\\Microsoft\\Windows NT\\CurrentVersion\\Drivers32" }
 { "syscall": "NtQueryValueKey","pid" : 612, "path" : "","parameter" : "" }
 { "syscall": "NtQueryValueKey","pid" : 612, "path" : "","parameter" : "msvideo5" }
 { "syscall": "NtOpenKey","pid" : 612, "path" : "","parameter" : "\\Registry\\Machine\\Software\\Wow6432Node\\Microsoft\\Windows NT\\CurrentVersion\\Drivers32" }
 { "syscall": "NtQueryValueKey","pid" : 612, "path" : "","parameter" : "" }
 { "syscall": "NtQueryValueKey","pid" : 612, "path" : "","parameter" : "msvideo6" }
 { "syscall": "NtOpenKey","pid" : 612, "path" : "","parameter" : "\\Registry\\Machine\\Software\\Wow6432Node\\Microsoft\\Windows NT\\CurrentVersion\\Drivers32" }
 { "syscall": "NtQueryValueKey","pid" : 612, "path" : "","parameter" : "" }
 { "syscall": "NtQueryValueKey","pid" : 612, "path" : "","parameter" : "msvideo7" }
 { "syscall": "NtOpenKey","pid" : 612, "path" : "","parameter" : "\\Registry\\Machine\\Software\\Wow6432Node\\Microsoft\\Windows NT\\CurrentVersion\\Drivers32" }
 { "syscall": "NtQueryValueKey","pid" : 612, "path" : "","parameter" : "" }
 { "syscall": "NtQueryValueKey","pid" : 612, "path" : "","parameter" : "msvideo8" }
 { "syscall": "NtOpenKey","pid" : 612, "path" : "","parameter" : "\\Registry\\Machine\\Software\\Wow6432Node\\Microsoft\\Windows NT\\CurrentVersion\\Drivers32" }
 { "syscall": "NtQueryValueKey","pid" : 612, "path" : "","parameter" : "" }
 { "syscall": "NtQueryValueKey","pid" : 612, "path" : "","parameter" : "msvideo9" }
 { "syscall": "NtQueryObject","pid" : 612, "path" : "","parameter" : "" }
 { "syscall": "NtQueryKey","pid" : 612, "path" : "","parameter" : "" }
 { "syscall": "NtQueryObject","pid" : 612, "path" : "","parameter" : "" }
 { "syscall": "NtOpenKey","pid" : 612, "path" : "","parameter" : "SYSTEM\\CurrentControlSet\\Control\\MediaResources\\msvideo" }
 { "syscall": "NtEnumerateKey","pid" : 612, "path" : "","parameter" : "" }
 { "syscall": "NtOpenKey","pid" : 612, "path" : "","parameter" : "\\Registry\\Machine\\Software\\Wow6432Node\\Microsoft\\Windows NT\\CurrentVersion\\Drivers32" }
 { "syscall": "NtQueryValueKey","pid" : 612, "path" : "","parameter" : "" }
 { "syscall": "NtQueryValueKey","pid" : 612, "path" : "","parameter" : "msvideo" }
 { "syscall": "NtOpenKey","pid" : 612, "path" : "","parameter" : "\\Registry\\Machine\\Software\\Wow6432Node\\Microsoft\\Windows NT\\CurrentVersion\\Drivers32" }
 { "syscall": "NtQueryValueKey","pid" : 612, "path" : "","parameter" : "" }
 { "syscall": "NtQueryValueKey","pid" : 612, "path" : "","parameter" : "msvideo1" }
 { "syscall": "NtOpenKey","pid" : 612, "path" : "","parameter" : "\\Registry\\Machine\\Software\\Wow6432Node\\Microsoft\\Windows NT\\CurrentVersion\\Drivers32" }
 { "syscall": "NtQueryValueKey","pid" : 612, "path" : "","parameter" : "" }
 { "syscall": "NtQueryValueKey","pid" : 612, "path" : "","parameter" : "msvideo2" }
 { "syscall": "NtOpenKey","pid" : 612, "path" : "","parameter" : "\\Registry\\Machine\\Software\\Wow6432Node\\Microsoft\\Windows NT\\CurrentVersion\\Drivers32" }
 { "syscall": "NtQueryValueKey","pid" : 612, "path" : "","parameter" : "" }
 { "syscall": "NtQueryValueKey","pid" : 612, "path" : "","parameter" : "msvideo3" }
 { "syscall": "NtOpenKey","pid" : 612, "path" : "","parameter" : "\\Registry\\Machine\\Software\\Wow6432Node\\Microsoft\\Windows NT\\CurrentVersion\\Drivers32" }
 { "syscall": "NtQueryValueKey","pid" : 612, "path" : "","parameter" : "" }
 { "syscall": "NtQueryValueKey","pid" : 612, "path" : "","parameter" : "msvideo4" }
 { "syscall": "NtOpenKey","pid" : 612, "path" : "","parameter" : "\\Registry\\Machine\\Software\\Wow6432Node\\Microsoft\\Windows NT\\CurrentVersion\\Drivers32" }
 { "syscall": "NtQueryValueKey","pid" : 612, "path" : "","parameter" : "" }
 { "syscall": "NtQueryValueKey","pid" : 612, "path" : "","parameter" : "msvideo5" }
 { "syscall": "NtOpenKey","pid" : 612, "path" : "","parameter" : "\\Registry\\Machine\\Software\\Wow6432Node\\Microsoft\\Windows NT\\CurrentVersion\\Drivers32" }
 { "syscall": "NtQueryValueKey","pid" : 612, "path" : "","parameter" : "" }
 { "syscall": "NtQueryValueKey","pid" : 612, "path" : "","parameter" : "msvideo6" }
 { "syscall": "NtOpenKey","pid" : 612, "path" : "","parameter" : "\\Registry\\Machine\\Software\\Wow6432Node\\Microsoft\\Windows NT\\CurrentVersion\\Drivers32" }
 { "syscall": "NtQueryValueKey","pid" : 612, "path" : "","parameter" : "" }
 { "syscall": "NtQueryValueKey","pid" : 612, "path" : "","parameter" : "msvideo7" }
 { "syscall": "NtOpenKey","pid" : 612, "path" : "","parameter" : "\\Registry\\Machine\\Software\\Wow6432Node\\Microsoft\\Windows NT\\CurrentVersion\\Drivers32" }
 { "syscall": "NtQueryValueKey","pid" : 612, "path" : "","parameter" : "" }
 { "syscall": "NtQueryValueKey","pid" : 612, "path" : "","parameter" : "msvideo8" }
 { "syscall": "NtOpenKey","pid" : 612, "path" : "","parameter" : "\\Registry\\Machine\\Software\\Wow6432Node\\Microsoft\\Windows NT\\CurrentVersion\\Drivers32" }
 { "syscall": "NtQueryValueKey","pid" : 612, "path" : "","parameter" : "" }
 { "syscall": "NtQueryValueKey","pid" : 612, "path" : "","parameter" : "msvideo9" }
 { "syscall": "NtQueryObject","pid" : 612, "path" : "","parameter" : "" }
 { "syscall": "NtQueryKey","pid" : 612, "path" : "","parameter" : "" }
 { "syscall": "NtQueryObject","pid" : 612, "path" : "","parameter" : "" }
 { "syscall": "NtOpenKey","pid" : 612, "path" : "","parameter" : "SYSTEM\\CurrentControlSet\\Control\\MediaResources\\msvideo" }
 { "syscall": "NtEnumerateKey","pid" : 612, "path" : "","parameter" : "" }
 { "syscall": "NtOpenKey","pid" : 612, "path" : "","parameter" : "\\Registry\\Machine\\Software\\Wow6432Node\\Microsoft\\Windows NT\\CurrentVersion\\Drivers32" }
 { "syscall": "NtQueryValueKey","pid" : 612, "path" : "","parameter" : "" }
 { "syscall": "NtQueryValueKey","pid" : 612, "path" : "","parameter" : "msvideo" }
 { "syscall": "NtOpenKey","pid" : 612, "path" : "","parameter" : "\\Registry\\Machine\\Software\\Wow6432Node\\Microsoft\\Windows NT\\CurrentVersion\\Drivers32" }
 { "syscall": "NtQueryValueKey","pid" : 612, "path" : "","parameter" : "" }
 { "syscall": "NtQueryValueKey","pid" : 612, "path" : "","parameter" : "msvideo1" }
 { "syscall": "NtOpenKey","pid" : 612, "path" : "","parameter" : "\\Registry\\Machine\\Software\\Wow6432Node\\Microsoft\\Windows NT\\CurrentVersion\\Drivers32" }
 { "syscall": "NtQueryValueKey","pid" : 612, "path" : "","parameter" : "" }
 { "syscall": "NtQueryValueKey","pid" : 612, "path" : "","parameter" : "msvideo2" }
 { "syscall": "NtUserQueryWindow","pid" : 612, "path" : "","parameter" : "" }
 { "syscall": "NtUserQueryWindow","pid" : 612, "path" : "","parameter" : "" }
 { "syscall": "NtQueryObject","pid" : 612, "path" : "","parameter" : "" }
 { "syscall": "NtQueryKey","pid" : 612, "path" : "","parameter" : "" }
 { "syscall": "NtOpenKey","pid" : 612, "path" : "","parameter" : "SOFTWARE\\Microsoft\\Windows\\CurrentVersion\\MMDevices\\Audio\\Capture\\{883d5e88-4307-4c53-a606-4f31daef2f36}\\Properties" }
 { "syscall": "NtQueryValueKey","pid" : 612, "path" : "","parameter" : "" }
 { "syscall": "NtQueryValueKey","pid" : 612, "path" : "","parameter" : "{b3f8fa53-0004-438e-9003-51a46e139bfc},6" }
 { "syscall": "NtQueryValueKey","pid" : 612, "path" : "","parameter" : "" }
 { "syscall": "NtQueryValueKey","pid" : 612, "path" : "","parameter" : "{b3f8fa53-0004-438e-9003-51a46e139bfc},6" }
 { "syscall": "NtQueryObject","pid" : 612, "path" : "","parameter" : "" }
 { "syscall": "NtQueryKey","pid" : 612, "path" : "","parameter" : "" }
 { "syscall": "NtOpenKey","pid" : 612, "path" : "","parameter" : "SOFTWARE\\Microsoft\\Windows\\CurrentVersion\\MMDevices\\Audio\\Capture\\{883d5e88-4307-4c53-a606-4f31daef2f36}\\Properties" }
 { "syscall": "NtQueryObject","pid" : 612, "path" : "","parameter" : "" }
 { "syscall": "NtQueryKey","pid" : 612, "path" : "","parameter" : "" }
 { "syscall": "NtOpenKey","pid" : 612, "path" : "","parameter" : "SOFTWARE\\Microsoft\\Windows\\CurrentVersion\\MMDevices\\Audio\\Capture\\{883d5e88-4307-4c53-a606-4f31daef2f36}\\Properties" }
 { "syscall": "NtQueryValueKey","pid" : 612, "path" : "","parameter" : "" }
 { "syscall": "NtQueryValueKey","pid" : 612, "path" : "","parameter" : "{b3f8fa53-0004-438e-9003-51a46e139bfc},1" }
 { "syscall": "NtQueryValueKey","pid" : 612, "path" : "","parameter" : "" }
 { "syscall": "NtQueryValueKey","pid" : 612, "path" : "","parameter" : "{b3f8fa53-0004-438e-9003-51a46e139bfc},1" }
 { "syscall": "NtQueryObject","pid" : 612, "path" : "","parameter" : "" }
 { "syscall": "NtQueryKey","pid" : 612, "path" : "","parameter" : "" }
 { "syscall": "NtOpenKey","pid" : 612, "path" : "","parameter" : "SOFTWARE\\Microsoft\\Windows\\CurrentVersion\\MMDevices\\Audio\\Capture\\{883d5e88-4307-4c53-a606-4f31daef2f36}\\Properties" }
 { "syscall": "NtQueryObject","pid" : 612, "path" : "","parameter" : "" }
 { "syscall": "NtQueryKey","pid" : 612, "path" : "","parameter" : "" }
 { "syscall": "NtOpenKey","pid" : 612, "path" : "","parameter" : "SOFTWARE\\Microsoft\\Windows\\CurrentVersion\\MMDevices\\Audio\\Capture\\{883d5e88-4307-4c53-a606-4f31daef2f36}\\Properties" }
 { "syscall": "NtQueryValueKey","pid" : 612, "path" : "","parameter" : "" }
 { "syscall": "NtQueryValueKey","pid" : 612, "path" : "","parameter" : "{1da5d803-d492-4edd-8c23-e0c0ffee7f0e},0" }
 { "syscall": "NtQueryValueKey","pid" : 612, "path" : "","parameter" : "" }
 { "syscall": "NtQueryValueKey","pid" : 612, "path" : "","parameter" : "{1da5d803-d492-4edd-8c23-e0c0ffee7f0e},0" }
 { "syscall": "NtQueryObject","pid" : 612, "path" : "","parameter" : "" }
 { "syscall": "NtQueryKey","pid" : 612, "path" : "","parameter" : "" }
 { "syscall": "NtOpenKey","pid" : 612, "path" : "","parameter" : "SOFTWARE\\Microsoft\\Windows\\CurrentVersion\\MMDevices\\Audio\\Capture\\{883d5e88-4307-4c53-a606-4f31daef2f36}\\Properties" }
 { "syscall": "NtQueryObject","pid" : 612, "path" : "","parameter" : "" }
 { "syscall": "NtQueryKey","pid" : 612, "path" : "","parameter" : "" }
 { "syscall": "NtOpenKey","pid" : 612, "path" : "","parameter" : "SOFTWARE\\Microsoft\\Windows\\CurrentVersion\\MMDevices\\Audio\\Capture\\{883d5e88-4307-4c53-a606-4f31daef2f36}\\Properties" }
 { "syscall": "NtQueryValueKey","pid" : 612, "path" : "","parameter" : "" }
 { "syscall": "NtQueryValueKey","pid" : 612, "path" : "","parameter" : "{b3f8fa53-0004-438e-9003-51a46e139bfc},1" }
 { "syscall": "NtQueryValueKey","pid" : 612, "path" : "","parameter" : "" }
 { "syscall": "NtQueryValueKey","pid" : 612, "path" : "","parameter" : "{b3f8fa53-0004-438e-9003-51a46e139bfc},1" }
 { "syscall": "NtQueryObject","pid" : 612, "path" : "","parameter" : "" }
 { "syscall": "NtQueryKey","pid" : 612, "path" : "","parameter" : "" }
 { "syscall": "NtOpenKey","pid" : 612, "path" : "","parameter" : "SOFTWARE\\Microsoft\\Windows\\CurrentVersion\\MMDevices\\Audio\\Capture\\{883d5e88-4307-4c53-a606-4f31daef2f36}\\Properties" }
 { "syscall": "NtQueryObject","pid" : 612, "path" : "","parameter" : "" }
 { "syscall": "NtQueryKey","pid" : 612, "path" : "","parameter" : "" }
 { "syscall": "NtOpenKey","pid" : 612, "path" : "","parameter" : "SOFTWARE\\Microsoft\\Windows\\CurrentVersion\\MMDevices\\Audio\\Capture\\{883d5e88-4307-4c53-a606-4f31daef2f36}\\Properties" }
 { "syscall": "NtQueryValueKey","pid" : 612, "path" : "","parameter" : "" }
 { "syscall": "NtQueryValueKey","pid" : 612, "path" : "","parameter" : "{a45c254e-df1c-4efd-8020-67d146a850e0},2" }
 { "syscall": "NtQueryValueKey","pid" : 612, "path" : "","parameter" : "" }
 { "syscall": "NtQueryValueKey","pid" : 612, "path" : "","parameter" : "{a45c254e-df1c-4efd-8020-67d146a850e0},2" }
 { "syscall": "NtQueryObject","pid" : 612, "path" : "","parameter" : "" }
 { "syscall": "NtQueryKey","pid" : 612, "path" : "","parameter" : "" }
 { "syscall": "NtOpenKey","pid" : 612, "path" : "","parameter" : "SOFTWARE\\Microsoft\\Windows\\CurrentVersion\\MMDevices\\Audio\\Capture\\{883d5e88-4307-4c53-a606-4f31daef2f36}\\Properties" }
 { "syscall": "NtQueryValueKey","pid" : 612, "path" : "","parameter" : "" }
 { "syscall": "NtQueryValueKey","pid" : 612, "path" : "","parameter" : "{026e516e-b814-414b-83cd-856d6fef4822},2" }
 { "syscall": "NtQueryObject","pid" : 612, "path" : "","parameter" : "" }
 { "syscall": "NtQueryKey","pid" : 612, "path" : "","parameter" : "" }
 { "syscall": "NtOpenKey","pid" : 612, "path" : "","parameter" : "SOFTWARE\\Microsoft\\Windows\\CurrentVersion\\MMDevices\\Audio\\Capture\\{883d5e88-4307-4c53-a606-4f31daef2f36}\\Properties" }
 { "syscall": "NtQueryValueKey","pid" : 612, "path" : "","parameter" : "" }
 { "syscall": "NtQueryValueKey","pid" : 612, "path" : "","parameter" : "{b3f8fa53-0004-438e-9003-51a46e139bfc},2" }
 { "syscall": "NtQueryValueKey","pid" : 612, "path" : "","parameter" : "" }
 { "syscall": "NtQueryValueKey","pid" : 612, "path" : "","parameter" : "{b3f8fa53-0004-438e-9003-51a46e139bfc},2" }
 { "syscall": "NtQueryValueKey","pid" : 612, "path" : "","parameter" : "" }
 { "syscall": "NtQueryValueKey","pid" : 612, "path" : "","parameter" : "{b3f8fa53-0004-438e-9003-51a46e139bfc},2" }
 { "syscall": "NtQueryObject","pid" : 612, "path" : "","parameter" : "" }
 { "syscall": "NtQueryKey","pid" : 612, "path" : "","parameter" : "" }
 { "syscall": "NtOpenKey","pid" : 612, "path" : "","parameter" : "SOFTWARE\\Microsoft\\Windows\\CurrentVersion\\MMDevices\\Audio\\Capture\\{883d5e88-4307-4c53-a606-4f31daef2f36}\\Properties" }
 { "syscall": "NtQueryValueKey","pid" : 612, "path" : "","parameter" : "" }
 { "syscall": "NtQueryValueKey","pid" : 612, "path" : "","parameter" : "{b3f8fa53-0004-438e-9003-51a46e139bfc},6" }
 { "syscall": "NtQueryValueKey","pid" : 612, "path" : "","parameter" : "" }
 { "syscall": "NtQueryValueKey","pid" : 612, "path" : "","parameter" : "{b3f8fa53-0004-438e-9003-51a46e139bfc},6" }
 { "syscall": "NtOpenKey","pid" : 612, "path" : "","parameter" : "\\REGISTRY\\USER\\S-1-5-21-3472189781-4152027690-2755707555-1000" }
 { "syscall": "NtQueryObject","pid" : 612, "path" : "","parameter" : "" }
 { "syscall": "NtQueryKey","pid" : 612, "path" : "","parameter" : "" }
 { "syscall": "NtQueryObject","pid" : 612, "path" : "","parameter" : "" }
 { "syscall": "NtOpenKey","pid" : 612, "path" : "","parameter" : "Software\\Microsoft\\Windows\\CurrentVersion\\Multimedia\\MIDIMap" }
 { "syscall": "NtOpenKey","pid" : 612, "path" : "","parameter" : "\\REGISTRY\\USER\\S-1-5-21-3472189781-4152027690-2755707555-1000" }
 { "syscall": "NtQueryObject","pid" : 612, "path" : "","parameter" : "" }
 { "syscall": "NtQueryKey","pid" : 612, "path" : "","parameter" : "" }
 { "syscall": "NtQueryObject","pid" : 612, "path" : "","parameter" : "" }
 { "syscall": "NtOpenKey","pid" : 612, "path" : "","parameter" : "Software\\Microsoft\\Windows\\CurrentVersion\\Multimedia\\MIDIMap" }
 { "syscall": "NtQueryValueKey","pid" : 612, "path" : "","parameter" : "" }
 { "syscall": "NtQueryValueKey","pid" : 612, "path" : "","parameter" : "wavemapper" }
 { "syscall": "NtQueryValueKey","pid" : 612, "path" : "","parameter" : "" }
 { "syscall": "NtQueryValueKey","pid" : 612, "path" : "","parameter" : "wavemapper" }
 { "syscall": "NtQueryObject","pid" : 612, "path" : "","parameter" : "" }
 { "syscall": "NtOpenSection","pid" : 612, "path" : "","parameter" : "" }
 { "syscall": "NtQueryAttributesFile","pid" : 612, "path" : "","parameter" : "" }
 { "syscall": "NtCreateFile","pid" : 612, "path" : "","parameter" : "\\Device\\HarddiskVolume1\\Users\\tony\\Desktop\\PandoraRat 2.2\\msacm32.drv" }
 { "syscall": "NtQueryAttributesFile","pid" : 612, "path" : "","parameter" : "" }
 { "syscall": "NtCreateFile","pid" : 612, "path" : "","parameter" : "\\Device\\HarddiskVolume1\\Windows\\SysWOW64\\msacm32.drv" }
 { "syscall": "NtCreateFile","pid" : 612, "path" : "","parameter" : "\\Device\\HarddiskVolume1\\Windows\\SysWOW64\\msacm32.drv" }
 { "syscall": "NtOpenFile","pid" : 612, "path" : "","parameter" : "" }
 { "syscall": "NtCreateFile","pid" : 612, "path" : "","parameter" : "\\Device\\HarddiskVolume1\\Windows\\SysWOW64\\msacm32.drv" }
 { "syscall": "NtCreateSection","pid" : 612, "path" : "","parameter" : "" }
 { "syscall": "NtOpenSection","pid" : 612, "path" : "","parameter" : "\\Windows\\SysWOW64\\msacm32.drv" }
 { "syscall": "NtQuerySection","pid" : 612, "path" : "","parameter" : "" }
 { "syscall": "NtQuerySection","pid" : 612, "path" : "","parameter" : "" }
 { "syscall": "NtProtectVirtualMemory","pid" : 612, "path" : "","parameter" : "" }
 { "syscall": "NtProtectVirtualMemory","pid" : 612, "path" : "","parameter" : "" }
 { "syscall": "NtCreateMutant","pid" : 612, "path" : "","parameter" : "" }
 { "syscall": "NtQueryValueKey","pid" : 612, "path" : "","parameter" : "" }
 { "syscall": "NtQueryValueKey","pid" : 612, "path" : "","parameter" : "wavemapper" }
 { "syscall": "NtQueryValueKey","pid" : 612, "path" : "","parameter" : "" }
 { "syscall": "NtQueryValueKey","pid" : 612, "path" : "","parameter" : "wavemapper" }
 { "syscall": "NtQueryValueKey","pid" : 612, "path" : "","parameter" : "" }
 { "syscall": "NtQueryValueKey","pid" : 612, "path" : "","parameter" : "wavemapper" }
 { "syscall": "NtQueryValueKey","pid" : 612, "path" : "","parameter" : "" }
 { "syscall": "NtQueryValueKey","pid" : 612, "path" : "","parameter" : "wavemapper" }
 { "syscall": "NtQueryValueKey","pid" : 612, "path" : "","parameter" : "" }
 { "syscall": "NtQueryValueKey","pid" : 612, "path" : "","parameter" : "wavemapper" }
 { "syscall": "NtQueryValueKey","pid" : 612, "path" : "","parameter" : "" }
 { "syscall": "NtQueryValueKey","pid" : 612, "path" : "","parameter" : "wavemapper" }
 { "syscall": "NtQueryValueKey","pid" : 612, "path" : "","parameter" : "" }
 { "syscall": "NtQueryValueKey","pid" : 612, "path" : "","parameter" : "wavemapper" }
 { "syscall": "NtQueryValueKey","pid" : 612, "path" : "","parameter" : "" }
 { "syscall": "NtQueryValueKey","pid" : 612, "path" : "","parameter" : "wavemapper" }
 { "syscall": "NtQueryValueKey","pid" : 612, "path" : "","parameter" : "" }
 { "syscall": "NtQueryValueKey","pid" : 612, "path" : "","parameter" : "wavemapper" }
 { "syscall": "NtQueryValueKey","pid" : 612, "path" : "","parameter" : "" }
 { "syscall": "NtQueryValueKey","pid" : 612, "path" : "","parameter" : "wavemapper" }
 { "syscall": "NtQueryValueKey","pid" : 612, "path" : "","parameter" : "" }
 { "syscall": "NtQueryValueKey","pid" : 612, "path" : "","parameter" : "wavemapper" }
 { "syscall": "NtQueryValueKey","pid" : 612, "path" : "","parameter" : "" }
 { "syscall": "NtQueryValueKey","pid" : 612, "path" : "","parameter" : "wavemapper" }
 { "syscall": "NtQueryValueKey","pid" : 612, "path" : "","parameter" : "" }
 { "syscall": "NtQueryValueKey","pid" : 612, "path" : "","parameter" : "wavemapper" }
 { "syscall": "NtQueryValueKey","pid" : 612, "path" : "","parameter" : "" }
 { "syscall": "NtQueryValueKey","pid" : 612, "path" : "","parameter" : "wavemapper" }
 { "syscall": "NtQueryValueKey","pid" : 612, "path" : "","parameter" : "" }
 { "syscall": "NtQueryValueKey","pid" : 612, "path" : "","parameter" : "wavemapper" }
 { "syscall": "NtQueryValueKey","pid" : 612, "path" : "","parameter" : "" }
 { "syscall": "NtQueryValueKey","pid" : 612, "path" : "","parameter" : "wavemapper" }
 { "syscall": "NtQueryValueKey","pid" : 612, "path" : "","parameter" : "" }
 { "syscall": "NtQueryValueKey","pid" : 612, "path" : "","parameter" : "wavemapper" }
 { "syscall": "NtQueryValueKey","pid" : 612, "path" : "","parameter" : "" }
 { "syscall": "NtQueryValueKey","pid" : 612, "path" : "","parameter" : "wavemapper" }
 { "syscall": "NtQueryValueKey","pid" : 612, "path" : "","parameter" : "" }
 { "syscall": "NtQueryValueKey","pid" : 612, "path" : "","parameter" : "wavemapper" }
 { "syscall": "NtQueryValueKey","pid" : 612, "path" : "","parameter" : "" }
 { "syscall": "NtQueryValueKey","pid" : 612, "path" : "","parameter" : "wavemapper" }
 { "syscall": "NtQueryValueKey","pid" : 612, "path" : "","parameter" : "" }
 { "syscall": "NtQueryValueKey","pid" : 612, "path" : "","parameter" : "wavemapper" }
 { "syscall": "NtQueryValueKey","pid" : 612, "path" : "","parameter" : "" }
 { "syscall": "NtQueryValueKey","pid" : 612, "path" : "","parameter" : "wavemapper" }
 { "syscall": "NtQueryValueKey","pid" : 612, "path" : "","parameter" : "" }
 { "syscall": "NtQueryValueKey","pid" : 612, "path" : "","parameter" : "wavemapper" }
 { "syscall": "NtQueryValueKey","pid" : 612, "path" : "","parameter" : "" }
 { "syscall": "NtQueryValueKey","pid" : 612, "path" : "","parameter" : "wavemapper" }
 { "syscall": "NtQueryValueKey","pid" : 612, "path" : "","parameter" : "" }
 { "syscall": "NtQueryValueKey","pid" : 612, "path" : "","parameter" : "wavemapper" }
 { "syscall": "NtQueryValueKey","pid" : 612, "path" : "","parameter" : "" }
 { "syscall": "NtQueryValueKey","pid" : 612, "path" : "","parameter" : "wavemapper" }
 { "syscall": "NtQueryValueKey","pid" : 612, "path" : "","parameter" : "" }
 { "syscall": "NtQueryValueKey","pid" : 612, "path" : "","parameter" : "wavemapper" }
 { "syscall": "NtQueryValueKey","pid" : 612, "path" : "","parameter" : "" }
 { "syscall": "NtQueryValueKey","pid" : 612, "path" : "","parameter" : "wavemapper" }
 { "syscall": "NtProtectVirtualMemory","pid" : 612, "path" : "","parameter" : "" }
 { "syscall": "NtProtectVirtualMemory","pid" : 612, "path" : "","parameter" : "" }
 { "syscall": "NtSetInformationThread","pid" : 612, "path" : "","parameter" : "" }
 { "syscall": "NtCreateMutant","pid" : 612, "path" : "","parameter" : "" }
 { "syscall": "NtQueryObject","pid" : 612, "path" : "","parameter" : "" }
 { "syscall": "NtSetInformationObject","pid" : 612, "path" : "","parameter" : "" }
 { "syscall": "NtOpenKey","pid" : 612, "path" : "","parameter" : "SOFTWARE\\Microsoft\\Windows\\CurrentVersion\\MMDevices\\Audio\\Capture\\{883d5e88-4307-4c53-a606-4f31daef2f36}" }
 { "syscall": "NtQueryValueKey","pid" : 612, "path" : "","parameter" : "DeviceState" }
 { "syscall": "NtOpenKey","pid" : 612, "path" : "","parameter" : "Software\\Microsoft\\Multimedia\\Audio" }
 { "syscall": "NtReadFile","pid" : 612, "path" : "","parameter" : "" }
 { "syscall": "NtReadFile","pid" : 612, "path" : "","parameter" : "" }
 { "syscall": "NtReadFile","pid" : 612, "path" : "","parameter" : "" }
 { "syscall": "NtReadFile","pid" : 612, "path" : "","parameter" : "" }
 { "syscall": "NtReadFile","pid" : 612, "path" : "","parameter" : "" }
 { "syscall": "NtReadFile","pid" : 612, "path" : "","parameter" : "" }
 { "syscall": "NtReadFile","pid" : 612, "path" : "","parameter" : "" }
 { "syscall": "NtReadFile","pid" : 612, "path" : "","parameter" : "" }
 { "syscall": "NtReadFile","pid" : 612, "path" : "","parameter" : "" }
 { "syscall": "NtReadFile","pid" : 612, "path" : "","parameter" : "" }
 { "syscall": "NtReadFile","pid" : 612, "path" : "","parameter" : "" }
 { "syscall": "NtReadFile","pid" : 612, "path" : "","parameter" : "" }
 { "syscall": "NtReadFile","pid" : 612, "path" : "","parameter" : "" }
 { "syscall": "NtReadFile","pid" : 612, "path" : "","parameter" : "" }
 { "syscall": "NtReadFile","pid" : 612, "path" : "","parameter" : "" }
 { "syscall": "NtReadFile","pid" : 612, "path" : "","parameter" : "" }
 { "syscall": "NtReadFile","pid" : 612, "path" : "","parameter" : "" }
 { "syscall": "NtReadFile","pid" : 612, "path" : "","parameter" : "" }
 { "syscall": "NtReadFile","pid" : 612, "path" : "","parameter" : "" }
 { "syscall": "NtReadFile","pid" : 612, "path" : "","parameter" : "" }
 { "syscall": "NtReadFile","pid" : 612, "path" : "","parameter" : "" }
 { "syscall": "NtReadFile","pid" : 612, "path" : "","parameter" : "" }
 { "syscall": "NtReadFile","pid" : 612, "path" : "","parameter" : "" }
 { "syscall": "NtReadFile","pid" : 612, "path" : "","parameter" : "" }
 { "syscall": "NtReadFile","pid" : 612, "path" : "","parameter" : "" }
 { "syscall": "NtReadFile","pid" : 612, "path" : "","parameter" : "" }
 { "syscall": "NtReadFile","pid" : 612, "path" : "","parameter" : "" }
 { "syscall": "NtReadFile","pid" : 612, "path" : "","parameter" : "" }
 { "syscall": "NtReadFile","pid" : 612, "path" : "","parameter" : "" }
 { "syscall": "NtReadFile","pid" : 612, "path" : "","parameter" : "" }
 { "syscall": "NtReadFile","pid" : 612, "path" : "","parameter" : "" }
 { "syscall": "NtReadFile","pid" : 612, "path" : "","parameter" : "" }
 { "syscall": "NtReadFile","pid" : 612, "path" : "","parameter" : "" }
 { "syscall": "NtReadFile","pid" : 612, "path" : "","parameter" : "" }
 { "syscall": "NtReadFile","pid" : 612, "path" : "","parameter" : "" }
 { "syscall": "NtReadFile","pid" : 612, "path" : "","parameter" : "" }
 { "syscall": "NtReadFile","pid" : 612, "path" : "","parameter" : "" }
 { "syscall": "NtReadFile","pid" : 612, "path" : "","parameter" : "" }
 { "syscall": "NtReadFile","pid" : 612, "path" : "","parameter" : "" }
 { "syscall": "NtReadFile","pid" : 612, "path" : "","parameter" : "" }
 { "syscall": "NtReadFile","pid" : 612, "path" : "","parameter" : "" }
 { "syscall": "NtReadFile","pid" : 612, "path" : "","parameter" : "" }
 { "syscall": "NtReadFile","pid" : 612, "path" : "","parameter" : "" }
 { "syscall": "NtReadFile","pid" : 612, "path" : "","parameter" : "" }
 { "syscall": "NtReadFile","pid" : 612, "path" : "","parameter" : "" }
 { "syscall": "NtReadFile","pid" : 612, "path" : "","parameter" : "" }
 { "syscall": "NtReadFile","pid" : 612, "path" : "","parameter" : "" }
 { "syscall": "NtReadFile","pid" : 612, "path" : "","parameter" : "" }
 { "syscall": "NtReadFile","pid" : 612, "path" : "","parameter" : "" }
 { "syscall": "NtReadFile","pid" : 612, "path" : "","parameter" : "" }
 { "syscall": "NtReadFile","pid" : 612, "path" : "","parameter" : "" }
 { "syscall": "NtReadFile","pid" : 612, "path" : "","parameter" : "" }
 { "syscall": "NtReadFile","pid" : 612, "path" : "","parameter" : "" }
 { "syscall": "NtReadFile","pid" : 612, "path" : "","parameter" : "" }
 { "syscall": "NtReadFile","pid" : 612, "path" : "","parameter" : "" }
 { "syscall": "NtReadFile","pid" : 612, "path" : "","parameter" : "" }
 { "syscall": "NtReadFile","pid" : 612, "path" : "","parameter" : "" }
 { "syscall": "NtReadFile","pid" : 612, "path" : "","parameter" : "" }
 { "syscall": "NtReadFile","pid" : 612, "path" : "","parameter" : "" }
 { "syscall": "NtReadFile","pid" : 612, "path" : "","parameter" : "" }
 { "syscall": "NtReadFile","pid" : 612, "path" : "","parameter" : "" }
 { "syscall": "NtReadFile","pid" : 612, "path" : "","parameter" : "" }
 { "syscall": "NtReadFile","pid" : 612, "path" : "","parameter" : "" }
 { "syscall": "NtReadFile","pid" : 612, "path" : "","parameter" : "" }
 { "syscall": "NtReadFile","pid" : 612, "path" : "","parameter" : "" }
 { "syscall": "NtReadFile","pid" : 612, "path" : "","parameter" : "" }
 { "syscall": "NtReadFile","pid" : 612, "path" : "","parameter" : "" }
 { "syscall": "NtReadFile","pid" : 612, "path" : "","parameter" : "" }
 { "syscall": "NtReadFile","pid" : 612, "path" : "","parameter" : "" }
 { "syscall": "NtReadFile","pid" : 612, "path" : "","parameter" : "" }
 { "syscall": "NtReadFile","pid" : 612, "path" : "","parameter" : "" }
 { "syscall": "NtReadFile","pid" : 612, "path" : "","parameter" : "" }
 { "syscall": "NtReadFile","pid" : 612, "path" : "","parameter" : "" }
 { "syscall": "NtReadFile","pid" : 612, "path" : "","parameter" : "" }
 { "syscall": "NtReadFile","pid" : 612, "path" : "","parameter" : "" }
 { "syscall": "NtReadFile","pid" : 612, "path" : "","parameter" : "" }
 { "syscall": "NtReadFile","pid" : 612, "path" : "","parameter" : "" }
 { "syscall": "NtReadFile","pid" : 612, "path" : "","parameter" : "" }
 { "syscall": "NtReadFile","pid" : 612, "path" : "","parameter" : "" }
 { "syscall": "NtReadFile","pid" : 612, "path" : "","parameter" : "" }
 { "syscall": "NtReadFile","pid" : 612, "path" : "","parameter" : "" }
 { "syscall": "NtReadFile","pid" : 612, "path" : "","parameter" : "" }
 { "syscall": "NtReadFile","pid" : 612, "path" : "","parameter" : "" }
 { "syscall": "NtReadFile","pid" : 612, "path" : "","parameter" : "" }
 { "syscall": "NtWriteFile","pid" : 612, "path" : "","parameter" : "" }
 { "syscall": "NtWriteFile","pid" : 612, "path" : "","parameter" : "" }
 { "syscall": "NtWriteFile","pid" : 612, "path" : "","parameter" : "" }
 { "syscall": "NtWriteFile","pid" : 612, "path" : "","parameter" : "" }
 { "syscall": "NtWriteFile","pid" : 612, "path" : "","parameter" : "" }
 { "syscall": "NtWriteFile","pid" : 612, "path" : "","parameter" : "" }
 { "syscall": "NtReadFile","pid" : 612, "path" : "","parameter" : "" }
 { "syscall": "NtReadFile","pid" : 612, "path" : "","parameter" : "" }
 { "syscall": "NtGdiDeleteObjectApp","pid" : 612, "path" : "","parameter" : "" }
 { "syscall": "NtGdiExtGetObjectW","pid" : 612, "path" : "","parameter" : "" }
 { "syscall": "NtGdiDeleteObjectApp","pid" : 612, "path" : "","parameter" : "" }
 { "syscall": "NtGdiCreateCompatibleDC","pid" : 612, "path" : "","parameter" : "" }
 { "syscall": "NtGdiDeleteObjectApp","pid" : 612, "path" : "","parameter" : "" }
 { "syscall": "NtUserGetDC","pid" : 612, "path" : "","parameter" : "" }
 { "syscall": "NtGdiCreateCompatibleDC","pid" : 612, "path" : "","parameter" : "" }
 { "syscall": "NtGdiDeleteObjectApp","pid" : 612, "path" : "","parameter" : "" }
 { "syscall": "NtUserGetDC","pid" : 612, "path" : "","parameter" : "" }
 { "syscall": "NtGdiExtGetObjectW","pid" : 612, "path" : "","parameter" : "" }
 { "syscall": "NtUserGetDC","pid" : 612, "path" : "","parameter" : "" }
 { "syscall": "NtGdiCreateCompatibleDC","pid" : 612, "path" : "","parameter" : "" }
 { "syscall": "NtGdiCreateDIBSection","pid" : 612, "path" : "","parameter" : "" }
 { "syscall": "NtGdiGetDIBitsInternal","pid" : 612, "path" : "","parameter" : "" }
 { "syscall": "NtGdiDeleteObjectApp","pid" : 612, "path" : "","parameter" : "" }
 { "syscall": "NtGdiExtGetObjectW","pid" : 612, "path" : "","parameter" : "" }
 { "syscall": "NtGdiExtGetObjectW","pid" : 612, "path" : "","parameter" : "" }
 { "syscall": "NtUserGetDC","pid" : 612, "path" : "","parameter" : "" }
 { "syscall": "NtGdiCreateCompatibleDC","pid" : 612, "path" : "","parameter" : "" }
 { "syscall": "NtGdiCreateDIBSection","pid" : 612, "path" : "","parameter" : "" }
 { "syscall": "NtGdiGetDIBitsInternal","pid" : 612, "path" : "","parameter" : "" }
 { "syscall": "NtGdiDeleteObjectApp","pid" : 612, "path" : "","parameter" : "" }
 { "syscall": "NtGdiExtGetObjectW","pid" : 612, "path" : "","parameter" : "" }
 { "syscall": "NtGdiDeleteObjectApp","pid" : 612, "path" : "","parameter" : "" }
 { "syscall": "NtGdiFlush","pid" : 612, "path" : "","parameter" : "" }
 { "syscall": "NtGdiFlush","pid" : 612, "path" : "","parameter" : "" }
 { "syscall": "NtGdiDeleteObjectApp","pid" : 612, "path" : "","parameter" : "" }
 { "syscall": "NtGdiExtGetObjectW","pid" : 612, "path" : "","parameter" : "" }
 { "syscall": "NtUserGetDC","pid" : 612, "path" : "","parameter" : "" }
 { "syscall": "NtGdiCreateCompatibleDC","pid" : 612, "path" : "","parameter" : "" }
 { "syscall": "NtGdiCreateDIBSection","pid" : 612, "path" : "","parameter" : "" }
 { "syscall": "NtGdiGetDIBitsInternal","pid" : 612, "path" : "","parameter" : "" }
 { "syscall": "NtGdiDeleteObjectApp","pid" : 612, "path" : "","parameter" : "" }
 { "syscall": "NtGdiExtGetObjectW","pid" : 612, "path" : "","parameter" : "" }
 { "syscall": "NtGdiDeleteObjectApp","pid" : 612, "path" : "","parameter" : "" }
 { "syscall": "NtUserGetDC","pid" : 612, "path" : "","parameter" : "" }
 { "syscall": "NtGdiGetDeviceCaps","pid" : 612, "path" : "","parameter" : "" }
 { "syscall": "NtGdiGetDeviceCaps","pid" : 612, "path" : "","parameter" : "" }
 { "syscall": "NtGdiCreateCompatibleDC","pid" : 612, "path" : "","parameter" : "" }
 { "syscall": "NtGdiCreateDIBSection","pid" : 612, "path" : "","parameter" : "" }
 { "syscall": "NtGdiStretchBlt","pid" : 612, "path" : "","parameter" : "" }
 { "syscall": "NtQueryObject","pid" : 612, "path" : "","parameter" : "" }
 { "syscall": "NtQueryKey","pid" : 612, "path" : "","parameter" : "" }
 { "syscall": "NtQueryObject","pid" : 612, "path" : "","parameter" : "" }
 { "syscall": "NtOpenKey","pid" : 612, "path" : "","parameter" : "\\REGISTRY\\MACHINE\\SOFTWARE\\Wow6432Node\\Microsoft\\Windows NT\\CurrentVersion\\Perflib" }
 { "syscall": "NtQueryValueKey","pid" : 612, "path" : "","parameter" : "" }
 { "syscall": "NtQueryValueKey","pid" : 612, "path" : "","parameter" : "Disable Performance Counters" }
 { "syscall": "NtQuerySystemInformation","pid" : 612, "path" : "","parameter" : "" }
 { "syscall": "NtQuerySystemInformation","pid" : 612, "path" : "","parameter" : "" }
 { "syscall": "NtQuerySystemInformation","pid" : 612, "path" : "","parameter" : "" }
 { "syscall": "NtQuerySystemInformation","pid" : 612, "path" : "","parameter" : "" }
 { "syscall": "NtQuerySystemInformation","pid" : 612, "path" : "","parameter" : "" }
 { "syscall": "NtUserGetRawInputData","pid" : 612, "path" : "","parameter" : "" }
 { "syscall": "NtUserGetRawInputData","pid" : 612, "path" : "","parameter" : "" }
